Lab05/Parte 1/simulation/qsim/barrel_shifter.msim.vcd
$comment
	File created using the following command:
		vcd file barrel_shifter.msim.vcd -direction
$end
$date
	Mon Mar 26 15:28:37 2018
$end
$version
	ModelSim Version 10.5b
$end
$timescale
	1ps
$end

$scope module barrel_shifter_vlg_vec_tst $end
$var reg 2 ! s [1:0] $end
$var reg 4 " w [3:0] $end
$var wire 1 # y [3] $end
$var wire 1 $ y [2] $end
$var wire 1 % y [1] $end
$var wire 1 & y [0] $end

$scope module i1 $end
$var wire 1 ' gnd $end
$var wire 1 ( vcc $end
$var wire 1 ) unknown $end
$var tri1 1 * devclrn $end
$var tri1 1 + devpor $end
$var tri1 1 , devoe $end
$var wire 1 - ~QUARTUS_CREATED_GND~I_combout $end
$var wire 1 . w[3]~input_o $end
$var wire 1 / w[0]~input_o $end
$var wire 1 0 w[1]~input_o $end
$var wire 1 1 w[2]~input_o $end
$var wire 1 2 s[0]~input_o $end
$var wire 1 3 s[1]~input_o $end
$var wire 1 4 Mux3~0_combout $end
$var wire 1 5 Mux3~1_combout $end
$var wire 1 6 Mux3~2_combout $end
$var wire 1 7 Mux3~3_combout $end
$upscope $end
$upscope $end
$enddefinitions $end
#0
$dumpvars
b0 !
b0 "
0&
0%
0$
0#
0'
1(
x)
1*
1+
1,
0-
0.
0/
00
01
02
03
04
05
06
07
$end
#50000
b1 "
1/
14
1&
#100000
b11 "
b10 "
0/
10
15
04
0&
1%
#150000
b11 "
1/
14
1&
#200000
b1 !
b111 "
b101 "
b100 "
0/
00
11
12
04
0&
#250000
b101 "
1/
17
1#
#300000
b111 "
b110 "
0/
10
07
14
1&
0#
#350000
b111 "
1/
17
1#
#400000
b11 !
b1111 "
b10 !
b1011 "
b1001 "
b1000 "
0/
00
01
1.
02
13
07
04
0&
0#
#450000
b1001 "
1/
16
1$
#500000
b1011 "
b1010 "
0/
10
17
06
0$
1#
#550000
b1011 "
1/
16
1$
#600000
b11 !
b1111 "
b1101 "
b1100 "
0/
00
11
12
06
05
14
1&
0%
0$
#650000
b1101 "
1/
15
1%
#700000
b1111 "
b1110 "
0/
10
16
05
0%
1$
#750000
b1111 "
1/
15
1%
