Lab07/RDU/simulation/qsim/RDU.msim.vcd
$comment
	File created using the following command:
		vcd file RDU.msim.vcd -direction
$end
$date
	Mon Apr  9 16:58:37 2018
$end
$version
	ModelSim Version 10.5b
$end
$timescale
	1ps
$end

$scope module shift_register_vlg_vec_tst $end
$var reg 1 ! clk $end
$var reg 2 " mode [1:0] $end
$var reg 6 # par_in [5:0] $end
$var reg 1 $ ser_in $end
$var wire 1 % par_out [5] $end
$var wire 1 & par_out [4] $end
$var wire 1 ' par_out [3] $end
$var wire 1 ( par_out [2] $end
$var wire 1 ) par_out [1] $end
$var wire 1 * par_out [0] $end

$scope module i1 $end
$var wire 1 + gnd $end
$var wire 1 , vcc $end
$var wire 1 - unknown $end
$var tri1 1 . devclrn $end
$var tri1 1 / devpor $end
$var tri1 1 0 devoe $end
$var wire 1 1 par_out[0]~output_o $end
$var wire 1 2 par_out[1]~output_o $end
$var wire 1 3 par_out[2]~output_o $end
$var wire 1 4 par_out[3]~output_o $end
$var wire 1 5 par_out[4]~output_o $end
$var wire 1 6 par_out[5]~output_o $end
$var wire 1 7 clk~input_o $end
$var wire 1 8 mode[0]~input_o $end
$var wire 1 9 ser_in~input_o $end
$var wire 1 : mode[1]~input_o $end
$var wire 1 ; par_in[5]~input_o $end
$var wire 1 < Q_buffer~6_combout $end
$var wire 1 = Q_buffer[0]~1_combout $end
$var wire 1 > par_in[4]~input_o $end
$var wire 1 ? Q_buffer~5_combout $end
$var wire 1 @ par_in[3]~input_o $end
$var wire 1 A Q_buffer~4_combout $end
$var wire 1 B par_in[2]~input_o $end
$var wire 1 C Q_buffer~3_combout $end
$var wire 1 D par_in[1]~input_o $end
$var wire 1 E Q_buffer~2_combout $end
$var wire 1 F par_in[0]~input_o $end
$var wire 1 G Q_buffer~0_combout $end
$var wire 1 H Q_buffer [5] $end
$var wire 1 I Q_buffer [4] $end
$var wire 1 J Q_buffer [3] $end
$var wire 1 K Q_buffer [2] $end
$var wire 1 L Q_buffer [1] $end
$var wire 1 M Q_buffer [0] $end
$upscope $end
$upscope $end
$enddefinitions $end
#0
$dumpvars
0!
b1 "
b0 #
1$
0*
0)
0(
0'
0&
0%
0+
1,
x-
1.
1/
10
01
02
03
04
05
06
07
18
19
0:
0;
1<
1=
0>
0?
0@
0A
0B
0C
0D
0E
0F
0G
0M
0L
0K
0J
0I
0H
$end
#30000
b1000 #
b1100 #
1B
1@
#50000
1!
17
1H
16
1%
1?
#60000
b100 #
b0 #
0B
0@
#100000
0$
0!
09
07
0<
#140000
1$
19
1<
#150000
1!
17
1I
15
1&
1A
#180000
0$
09
0<
#200000
b0 "
0!
08
07
0=
0A
0?
1<
#230000
b10000 #
b11000 #
b11100 #
1B
1@
1>
#250000
1!
17
#290000
b1100 #
b100 #
b0 #
0B
0@
0>
#300000
0!
07
#340000
1$
19
1G
#350000
1!
17
#380000
0$
09
0G
#400000
0!
07
#410000
b10 "
b11 "
18
1:
1=
0<
#430000
b100000 #
b100010 #
b101010 #
1D
1@
1;
1<
1A
1E
#450000
1!
17
1L
1J
0I
05
14
12
1)
1'
0&
#480000
b1010 #
b1000 #
b0 #
0D
0@
0;
0<
0A
0E
#500000
0!
07
#520000
1$
19
#530000
b10000 #
b10100 #
b11100 #
1B
1@
1>
1?
1A
1C
#550000
1!
17
0L
1K
1I
0H
06
15
13
02
0)
1(
1&
0%
#580000
0$
b1100 #
b1000 #
b0 #
09
0B
0@
0>
0?
0A
0C
#600000
b10 "
0!
08
07
1A
1?
1<
#630000
b1000 #
1@
#640000
1$
19
1G
#650000
1!
17
1M
0K
1H
16
03
11
1*
0(
1%
1E
0A
#670000
0$
09
0G
#680000
b0 #
0@
#700000
0!
07
#730000
1$
19
1G
#750000
1!
17
1L
0J
04
12
1)
0'
1C
0?
#770000
0$
09
0G
