Lab03/Parte 1/Lab03-01/simulation/qsim/Lab03-01.msim.vcd
$comment
	File created using the following command:
		vcd file Lab03-01.msim.vcd -direction
$end
$date
	Mon Mar 19 13:10:17 2018
$end
$version
	ModelSim Version 10.5b
$end
$timescale
	1ps
$end

$scope module xbar_v3_vlg_vec_tst $end
$var reg 1 ! s $end
$var reg 1 " x1 $end
$var reg 1 # x2 $end
$var wire 1 $ y1 $end
$var wire 1 % y2 $end

$scope module i1 $end
$var wire 1 & gnd $end
$var wire 1 ' vcc $end
$var wire 1 ( unknown $end
$var tri1 1 ) devclrn $end
$var tri1 1 * devpor $end
$var tri1 1 + devoe $end
$var wire 1 , ~QUARTUS_CREATED_GND~I_combout $end
$var wire 1 - x1~input_o $end
$var wire 1 . s~input_o $end
$var wire 1 / x2~input_o $end
$var wire 1 0 y1~0_combout $end
$var wire 1 1 y2~0_combout $end
$upscope $end
$upscope $end
$enddefinitions $end
#0
$dumpvars
0!
1"
1#
1$
1%
0&
1'
x(
1)
1*
1+
0,
1-
0.
1/
10
11
$end
#100000
0#
0/
01
0%
#200000
0"
1#
0-
1/
11
00
0$
1%
#300000
0#
0/
01
0%
#400000
1!
1"
1#
1.
1-
1/
11
10
1$
1%
#520000
0#
0/
00
0$
#610000
0"
1#
0-
1/
01
10
1$
0%
#710000
0#
0/
00
0$
