Lab07/Clock/simulation/qsim/Clock.msim.vcd
$comment
	File created using the following command:
		vcd file Clock.msim.vcd -direction
$end
$date
	Wed Apr 11 19:31:06 2018
$end
$version
	ModelSim Version 10.5b
$end
$timescale
	1ps
$end

$scope module clk_div_vhd_vec_tst $end
$var wire 1 ! clk $end
$var wire 1 " clk_hz $end

$scope module i1 $end
$var wire 1 # gnd $end
$var wire 1 $ vcc $end
$var wire 1 % unknown $end
$var wire 1 & devoe $end
$var wire 1 ' devclrn $end
$var wire 1 ( devpor $end
$var wire 1 ) ww_devoe $end
$var wire 1 * ww_devclrn $end
$var wire 1 + ww_devpor $end
$var wire 1 , ww_clk $end
$var wire 1 - ww_clk_hz $end
$var wire 1 . \clk_hz~output_o\ $end
$var wire 1 / \clk~input_o\ $end
$var wire 1 0 \temp~q\ $end
$var wire 1 1 \Add0~105_sumout\ $end
$var wire 1 2 \Add0~30\ $end
$var wire 1 3 \Add0~2\ $end
$var wire 1 4 \Add0~5_sumout\ $end
$var wire 1 5 \Add0~6\ $end
$var wire 1 6 \Add0~9_sumout\ $end
$var wire 1 7 \Equal0~0_combout\ $end
$var wire 1 8 \Equal0~1_combout\ $end
$var wire 1 9 \Equal0~2_combout\ $end
$var wire 1 : \Equal0~3_combout\ $end
$var wire 1 ; \Equal0~9_combout\ $end
$var wire 1 < \Equal0~4_combout\ $end
$var wire 1 = \counter~0_combout\ $end
$var wire 1 > \Add0~106\ $end
$var wire 1 ? \Add0~109_sumout\ $end
$var wire 1 @ \Add0~110\ $end
$var wire 1 A \Add0~113_sumout\ $end
$var wire 1 B \Add0~114\ $end
$var wire 1 C \Add0~117_sumout\ $end
$var wire 1 D \Add0~118\ $end
$var wire 1 E \Add0~121_sumout\ $end
$var wire 1 F \Add0~122\ $end
$var wire 1 G \Add0~125_sumout\ $end
$var wire 1 H \Add0~126\ $end
$var wire 1 I \Add0~53_sumout\ $end
$var wire 1 J \Add0~54\ $end
$var wire 1 K \Add0~57_sumout\ $end
$var wire 1 L \Add0~58\ $end
$var wire 1 M \Add0~61_sumout\ $end
$var wire 1 N \Add0~62\ $end
$var wire 1 O \Add0~33_sumout\ $end
$var wire 1 P \Add0~34\ $end
$var wire 1 Q \Add0~37_sumout\ $end
$var wire 1 R \Add0~38\ $end
$var wire 1 S \Add0~85_sumout\ $end
$var wire 1 T \Add0~86\ $end
$var wire 1 U \Add0~89_sumout\ $end
$var wire 1 V \Add0~90\ $end
$var wire 1 W \Add0~93_sumout\ $end
$var wire 1 X \Add0~94\ $end
$var wire 1 Y \Add0~97_sumout\ $end
$var wire 1 Z \Add0~98\ $end
$var wire 1 [ \Add0~41_sumout\ $end
$var wire 1 \ \Add0~42\ $end
$var wire 1 ] \Add0~101_sumout\ $end
$var wire 1 ^ \Add0~102\ $end
$var wire 1 _ \Add0~45_sumout\ $end
$var wire 1 ` \Add0~46\ $end
$var wire 1 a \Add0~49_sumout\ $end
$var wire 1 b \Add0~50\ $end
$var wire 1 c \Add0~13_sumout\ $end
$var wire 1 d \Add0~14\ $end
$var wire 1 e \Add0~17_sumout\ $end
$var wire 1 f \Add0~18\ $end
$var wire 1 g \Add0~65_sumout\ $end
$var wire 1 h \Add0~66\ $end
$var wire 1 i \Add0~69_sumout\ $end
$var wire 1 j \Add0~70\ $end
$var wire 1 k \Add0~73_sumout\ $end
$var wire 1 l \Add0~74\ $end
$var wire 1 m \Add0~77_sumout\ $end
$var wire 1 n \Add0~78\ $end
$var wire 1 o \Add0~21_sumout\ $end
$var wire 1 p \Add0~22\ $end
$var wire 1 q \Add0~81_sumout\ $end
$var wire 1 r \Add0~82\ $end
$var wire 1 s \Add0~25_sumout\ $end
$var wire 1 t \Add0~26\ $end
$var wire 1 u \Add0~29_sumout\ $end
$var wire 1 v \Equal0~7_combout\ $end
$var wire 1 w \Equal0~8_combout\ $end
$var wire 1 x \Equal0~5_combout\ $end
$var wire 1 y \Equal0~6_combout\ $end
$var wire 1 z \Add0~1_sumout\ $end
$var wire 1 { \temp~0_combout\ $end
$var wire 1 | \clk_hz~reg0_q\ $end
$var wire 1 } counter [31] $end
$var wire 1 ~ counter [30] $end
$var wire 1 !! counter [29] $end
$var wire 1 "! counter [28] $end
$var wire 1 #! counter [27] $end
$var wire 1 $! counter [26] $end
$var wire 1 %! counter [25] $end
$var wire 1 &! counter [24] $end
$var wire 1 '! counter [23] $end
$var wire 1 (! counter [22] $end
$var wire 1 )! counter [21] $end
$var wire 1 *! counter [20] $end
$var wire 1 +! counter [19] $end
$var wire 1 ,! counter [18] $end
$var wire 1 -! counter [17] $end
$var wire 1 .! counter [16] $end
$var wire 1 /! counter [15] $end
$var wire 1 0! counter [14] $end
$var wire 1 1! counter [13] $end
$var wire 1 2! counter [12] $end
$var wire 1 3! counter [11] $end
$var wire 1 4! counter [10] $end
$var wire 1 5! counter [9] $end
$var wire 1 6! counter [8] $end
$var wire 1 7! counter [7] $end
$var wire 1 8! counter [6] $end
$var wire 1 9! counter [5] $end
$var wire 1 :! counter [4] $end
$var wire 1 ;! counter [3] $end
$var wire 1 <! counter [2] $end
$var wire 1 =! counter [1] $end
$var wire 1 >! counter [0] $end
$var wire 1 ?! \ALT_INV_Equal0~9_combout\ $end
$var wire 1 @! \ALT_INV_Equal0~8_combout\ $end
$var wire 1 A! \ALT_INV_Equal0~7_combout\ $end
$var wire 1 B! \ALT_INV_Equal0~5_combout\ $end
$var wire 1 C! ALT_INV_counter [31] $end
$var wire 1 D! ALT_INV_counter [30] $end
$var wire 1 E! ALT_INV_counter [29] $end
$var wire 1 F! ALT_INV_counter [28] $end
$var wire 1 G! ALT_INV_counter [27] $end
$var wire 1 H! ALT_INV_counter [26] $end
$var wire 1 I! ALT_INV_counter [25] $end
$var wire 1 J! ALT_INV_counter [24] $end
$var wire 1 K! ALT_INV_counter [23] $end
$var wire 1 L! ALT_INV_counter [22] $end
$var wire 1 M! ALT_INV_counter [21] $end
$var wire 1 N! ALT_INV_counter [20] $end
$var wire 1 O! ALT_INV_counter [19] $end
$var wire 1 P! ALT_INV_counter [18] $end
$var wire 1 Q! ALT_INV_counter [17] $end
$var wire 1 R! ALT_INV_counter [16] $end
$var wire 1 S! ALT_INV_counter [15] $end
$var wire 1 T! ALT_INV_counter [14] $end
$var wire 1 U! ALT_INV_counter [13] $end
$var wire 1 V! ALT_INV_counter [12] $end
$var wire 1 W! ALT_INV_counter [11] $end
$var wire 1 X! ALT_INV_counter [10] $end
$var wire 1 Y! ALT_INV_counter [9] $end
$var wire 1 Z! ALT_INV_counter [8] $end
$var wire 1 [! ALT_INV_counter [7] $end
$var wire 1 \! ALT_INV_counter [6] $end
$var wire 1 ]! ALT_INV_counter [5] $end
$var wire 1 ^! ALT_INV_counter [4] $end
$var wire 1 _! ALT_INV_counter [3] $end
$var wire 1 `! ALT_INV_counter [2] $end
$var wire 1 a! ALT_INV_counter [1] $end
$var wire 1 b! ALT_INV_counter [0] $end
$var wire 1 c! \ALT_INV_Equal0~4_combout\ $end
$var wire 1 d! \ALT_INV_Equal0~3_combout\ $end
$var wire 1 e! \ALT_INV_Equal0~2_combout\ $end
$var wire 1 f! \ALT_INV_Equal0~1_combout\ $end
$var wire 1 g! \ALT_INV_Equal0~0_combout\ $end
$var wire 1 h! \ALT_INV_temp~q\ $end
$var wire 1 i! \ALT_INV_Add0~125_sumout\ $end
$var wire 1 j! \ALT_INV_Add0~9_sumout\ $end
$var wire 1 k! \ALT_INV_Add0~121_sumout\ $end
$var wire 1 l! \ALT_INV_Add0~5_sumout\ $end
$var wire 1 m! \ALT_INV_Add0~117_sumout\ $end
$var wire 1 n! \ALT_INV_Add0~113_sumout\ $end
$var wire 1 o! \ALT_INV_Add0~13_sumout\ $end
$var wire 1 p! \ALT_INV_Add0~109_sumout\ $end
$var wire 1 q! \ALT_INV_Add0~41_sumout\ $end
$var wire 1 r! \ALT_INV_Add0~105_sumout\ $end
$var wire 1 s! \ALT_INV_Add0~37_sumout\ $end
$var wire 1 t! \ALT_INV_Add0~33_sumout\ $end
$var wire 1 u! \ALT_INV_Add0~29_sumout\ $end
$var wire 1 v! \ALT_INV_Add0~101_sumout\ $end
$var wire 1 w! \ALT_INV_Add0~25_sumout\ $end
$var wire 1 x! \ALT_INV_Add0~1_sumout\ $end
$var wire 1 y! \ALT_INV_Add0~21_sumout\ $end
$var wire 1 z! \ALT_INV_Add0~17_sumout\ $end
$var wire 1 {! \ALT_INV_Add0~45_sumout\ $end
$var wire 1 |! \ALT_INV_Add0~81_sumout\ $end
$var wire 1 }! \ALT_INV_Add0~77_sumout\ $end
$var wire 1 ~! \ALT_INV_Add0~73_sumout\ $end
$var wire 1 !" \ALT_INV_Add0~97_sumout\ $end
$var wire 1 "" \ALT_INV_Add0~69_sumout\ $end
$var wire 1 #" \ALT_INV_Add0~93_sumout\ $end
$var wire 1 $" \ALT_INV_Add0~65_sumout\ $end
$var wire 1 %" \ALT_INV_Add0~61_sumout\ $end
$var wire 1 &" \ALT_INV_Add0~57_sumout\ $end
$var wire 1 '" \ALT_INV_Add0~89_sumout\ $end
$var wire 1 (" \ALT_INV_Add0~53_sumout\ $end
$var wire 1 )" \ALT_INV_Add0~85_sumout\ $end
$var wire 1 *" \ALT_INV_Add0~49_sumout\ $end
$upscope $end
$upscope $end
$enddefinitions $end
#0
$dumpvars
0!
0"
0#
1$
x%
1&
1'
1(
1)
1*
1+
0,
0-
0.
0/
00
01
02
03
04
05
06
07
08
09
0:
0;
0<
1=
1>
1?
0@
0A
0B
0C
0D
0E
0F
0G
0H
0I
0J
0K
0L
0M
0N
0O
0P
0Q
0R
0S
0T
0U
0V
0W
0X
0Y
0Z
0[
0\
0]
0^
0_
0`
0a
0b
0c
0d
0e
0f
0g
0h
0i
0j
0k
0l
0m
0n
0o
0p
0q
0r
0s
0t
0u
0v
0w
0x
0y
0z
0{
0|
1?!
1@!
1A!
1B!
1c!
1d!
1e!
1f!
1g!
1h!
1i!
1j!
1k!
1l!
1m!
1n!
1o!
0p!
1q!
1r!
1s!
1t!
1u!
1v!
1w!
1x!
1y!
1z!
1{!
1|!
1}!
1~!
1!"
1""
1#"
1$"
1%"
1&"
1'"
1("
1)"
1*"
0}
0~
0!!
0"!
0#!
0$!
0%!
0&!
0'!
0(!
0)!
0*!
0+!
0,!
0-!
0.!
0/!
00!
01!
02!
03!
04!
05!
06!
07!
08!
09!
0:!
0;!
0<!
0=!
0>!
1C!
1D!
1E!
1F!
1G!
1H!
1I!
1J!
1K!
1L!
1M!
1N!
1O!
1P!
1Q!
1R!
1S!
1T!
1U!
1V!
1W!
1X!
1Y!
1Z!
1[!
1\!
1]!
1^!
1_!
1`!
1a!
1b!
$end
#10
1!
1,
1/
1>!
1=!
0a!
0b!
11
0>
0?
1@
1p!
0r!
1A
1?
0@
0=
0p!
0n!
0A
1n!
#20
0!
0,
0/
#30
1!
1,
1/
0>!
1b!
01
1>
1r!
0?
1@
1=
1p!
1A
1:
0n!
0d!
0:
1d!
#40
0!
0,
0/
#50
1!
1,
1/
1>!
0=!
1<!
0`!
1a!
0b!
11
0>
1?
0@
0A
1B
1n!
0p!
0r!
1C
1A
0B
0?
0=
1p!
0n!
0m!
0C
1m!
#60
0!
0,
0/
#70
1!
1,
1/
0>!
1b!
01
1>
1r!
1?
1=
0p!
#80
0!
0,
0/
#90
1!
1,
1/
1>!
1=!
0a!
0b!
11
0>
0?
1@
1p!
0r!
0A
1B
1?
0@
0=
0p!
1n!
1A
0B
1C
0m!
0n!
0C
1m!
#100
0!
0,
0/
#110
1!
1,
1/
0>!
1b!
01
1>
1r!
0?
1@
1=
1p!
0A
1B
1n!
1C
1:
0m!
0d!
0:
1d!
#120
0!
0,
0/
#130
1!
1,
1/
1>!
0=!
0<!
1;!
0_!
1`!
1a!
0b!
11
0>
1?
0@
1A
0B
0C
1D
1m!
0n!
0p!
0r!
1E
1C
0D
0A
0?
0=
1p!
1n!
0m!
0k!
0E
1k!
#140
0!
0,
0/
#150
1!
1,
1/
0>!
1b!
01
1>
1r!
1?
1=
0p!
#160
0!
0,
0/
#170
1!
1,
1/
1>!
1=!
0a!
0b!
11
0>
0?
1@
1p!
0r!
1A
1?
0@
0=
0p!
0n!
0A
1n!
#180
0!
0,
0/
#190
1!
1,
1/
0>!
1b!
01
1>
1r!
0?
1@
1=
1p!
1A
0n!
#200
0!
0,
0/
#210
1!
1,
1/
1>!
0=!
1<!
0`!
1a!
0b!
11
0>
1?
0@
0A
1B
1n!
0p!
0r!
0C
1D
1A
0B
0?
0=
1p!
0n!
1m!
1C
0D
1E
0k!
0m!
0E
1k!
#220
0!
0,
0/
#230
1!
1,
1/
0>!
1b!
01
1>
1r!
1?
1=
0p!
#240
0!
0,
0/
#250
1!
1,
1/
1>!
1=!
0a!
0b!
11
0>
0?
1@
1p!
0r!
0A
1B
1?
0@
0=
0p!
1n!
1A
0B
0C
1D
1m!
0n!
1E
1C
0D
0m!
0k!
0E
1k!
#260
0!
0,
0/
#270
1!
1,
1/
0>!
1b!
01
1>
1r!
0?
1@
1=
1p!
0A
1B
1n!
0C
1D
1m!
1E
1:
0k!
0d!
0:
1d!
#280
0!
0,
0/
#290
1!
1,
1/
1>!
0=!
0<!
0;!
1:!
0^!
1_!
1`!
1a!
0b!
11
0>
1?
0@
1A
0B
1C
0D
0E
1F
1k!
0m!
0n!
0p!
0r!
1G
1E
0F
0C
0A
0?
0=
1p!
1n!
1m!
0k!
0i!
0G
1i!
#300
0!
0,
0/
#310
1!
1,
1/
0>!
1b!
01
1>
1r!
1?
1=
0p!
#320
0!
0,
0/
#330
1!
1,
1/
1>!
1=!
0a!
0b!
11
0>
0?
1@
1p!
0r!
1A
1?
0@
0=
0p!
0n!
0A
1n!
#340
0!
0,
0/
#350
1!
1,
1/
0>!
1b!
01
1>
1r!
0?
1@
1=
1p!
1A
0n!
#360
0!
0,
0/
#370
1!
1,
1/
1>!
0=!
1<!
0`!
1a!
0b!
11
0>
1?
0@
0A
1B
1n!
0p!
0r!
1C
1A
0B
0?
0=
1p!
0n!
0m!
0C
1m!
#380
0!
0,
0/
#390
1!
1,
1/
0>!
1b!
01
1>
1r!
1?
1=
0p!
#400
0!
0,
0/
#410
1!
1,
1/
1>!
1=!
0a!
0b!
11
0>
0?
1@
1p!
0r!
0A
1B
1?
0@
0=
0p!
1n!
1A
0B
1C
0m!
0n!
0C
1m!
#420
0!
0,
0/
#430
1!
1,
1/
0>!
1b!
01
1>
1r!
0?
1@
1=
1p!
0A
1B
1n!
1C
0m!
#440
0!
0,
0/
#450
1!
1,
1/
1>!
0=!
0<!
1;!
0_!
1`!
1a!
0b!
11
0>
1?
0@
1A
0B
0C
1D
1m!
0n!
0p!
0r!
0E
1F
1C
0D
0A
0?
0=
1p!
1n!
0m!
1k!
1E
0F
1G
0i!
0k!
0G
1i!
#460
0!
0,
0/
#470
1!
1,
1/
0>!
1b!
01
1>
1r!
1?
1=
0p!
#480
0!
0,
0/
#490
1!
1,
1/
1>!
1=!
0a!
0b!
11
0>
0?
1@
1p!
0r!
1A
1?
0@
0=
0p!
0n!
0A
1n!
#500
0!
0,
0/
#510
1!
1,
1/
0>!
1b!
01
1>
1r!
0?
1@
1=
1p!
1A
0n!
#520
0!
0,
0/
#530
1!
1,
1/
1>!
0=!
1<!
0`!
1a!
0b!
11
0>
1?
0@
0A
1B
1n!
0p!
0r!
0C
1D
1A
0B
0?
0=
1p!
0n!
1m!
1C
0D
0E
1F
1k!
0m!
1G
1E
0F
0k!
0i!
0G
1i!
#540
0!
0,
0/
#550
1!
1,
1/
0>!
1b!
01
1>
1r!
1?
1=
0p!
#560
0!
0,
0/
#570
1!
1,
1/
1>!
1=!
0a!
0b!
11
0>
0?
1@
1p!
0r!
0A
1B
1?
0@
0=
0p!
1n!
1A
0B
0C
1D
1m!
0n!
0E
1F
1C
0D
0m!
1k!
1E
0F
1G
0i!
0k!
0G
1i!
#580
0!
0,
0/
#590
1!
1,
1/
0>!
1b!
01
1>
1r!
0?
1@
1=
1p!
0A
1B
1n!
0C
1D
1m!
0E
1F
1k!
1G
1:
0i!
0d!
0:
1d!
#600
0!
0,
0/
#610
1!
1,
1/
1>!
0=!
0<!
0;!
0:!
19!
0]!
1^!
1_!
1`!
1a!
0b!
11
0>
1?
0@
1A
0B
1C
0D
1E
0F
0G
1H
1i!
0k!
0m!
0n!
0p!
0r!
1I
1G
0H
0E
0C
0A
0?
0=
1p!
1n!
1m!
1k!
0i!
0("
0I
1("
#620
0!
0,
0/
#630
1!
1,
1/
0>!
1b!
01
1>
1r!
1?
1=
0p!
#640
0!
0,
0/
#650
1!
1,
1/
1>!
1=!
0a!
0b!
11
0>
0?
1@
1p!
0r!
1A
1?
0@
0=
0p!
0n!
0A
1n!
#660
0!
0,
0/
#670
1!
1,
1/
0>!
1b!
01
1>
1r!
0?
1@
1=
1p!
1A
0n!
#680
0!
0,
0/
#690
1!
1,
1/
1>!
0=!
1<!
0`!
1a!
0b!
11
0>
1?
0@
0A
1B
1n!
0p!
0r!
1C
1A
0B
0?
0=
1p!
0n!
0m!
0C
1m!
#700
0!
0,
0/
#710
1!
1,
1/
0>!
1b!
01
1>
1r!
1?
1=
0p!
#720
0!
0,
0/
#730
1!
1,
1/
1>!
1=!
0a!
0b!
11
0>
0?
1@
1p!
0r!
0A
1B
1?
0@
0=
0p!
1n!
1A
0B
1C
0m!
0n!
0C
1m!
#740
0!
0,
0/
#750
1!
1,
1/
0>!
1b!
01
1>
1r!
0?
1@
1=
1p!
0A
1B
1n!
1C
0m!
#760
0!
0,
0/
#770
1!
1,
1/
1>!
0=!
0<!
1;!
0_!
1`!
1a!
0b!
11
0>
1?
0@
1A
0B
0C
1D
1m!
0n!
0p!
0r!
1E
1C
0D
0A
0?
0=
1p!
1n!
0m!
0k!
0E
1k!
#780
0!
0,
0/
#790
1!
1,
1/
0>!
1b!
01
1>
1r!
1?
1=
0p!
#800
0!
0,
0/
#810
1!
1,
1/
1>!
1=!
0a!
0b!
11
0>
0?
1@
1p!
0r!
1A
1?
0@
0=
0p!
0n!
0A
1n!
#820
0!
0,
0/
#830
1!
1,
1/
0>!
1b!
01
1>
1r!
0?
1@
1=
1p!
1A
0n!
#840
0!
0,
0/
#850
1!
1,
1/
1>!
0=!
1<!
0`!
1a!
0b!
11
0>
1?
0@
0A
1B
1n!
0p!
0r!
0C
1D
1A
0B
0?
0=
1p!
0n!
1m!
1C
0D
1E
0k!
0m!
0E
1k!
#860
0!
0,
0/
#870
1!
1,
1/
0>!
1b!
01
1>
1r!
1?
1=
0p!
#880
0!
0,
0/
#890
1!
1,
1/
1>!
1=!
0a!
0b!
11
0>
0?
1@
1p!
0r!
0A
1B
1?
0@
0=
0p!
1n!
1A
0B
0C
1D
1m!
0n!
1E
1C
0D
0m!
0k!
0E
1k!
#900
0!
0,
0/
#910
1!
1,
1/
0>!
1b!
01
1>
1r!
0?
1@
1=
1p!
0A
1B
1n!
0C
1D
1m!
1E
0k!
#920
0!
0,
0/
#930
1!
1,
1/
1>!
0=!
0<!
0;!
1:!
0^!
1_!
1`!
1a!
0b!
11
0>
1?
0@
1A
0B
1C
0D
0E
1F
1k!
0m!
0n!
0p!
0r!
0G
1H
1E
0F
0C
0A
0?
0=
1p!
1n!
1m!
0k!
1i!
1G
0H
1I
0("
0i!
0I
1("
#940
0!
0,
0/
#950
1!
1,
1/
0>!
1b!
01
1>
1r!
1?
1=
0p!
#960
0!
0,
0/
#970
1!
1,
1/
1>!
1=!
0a!
0b!
11
0>
0?
1@
1p!
0r!
1A
1?
0@
0=
0p!
0n!
0A
1n!
#980
0!
0,
0/
#990
1!
1,
1/
0>!
1b!
01
1>
1r!
0?
1@
1=
1p!
1A
0n!
#1000
0!
0,
0/
#1010
1!
1,
1/
1>!
0=!
1<!
0`!
1a!
0b!
11
0>
1?
0@
0A
1B
1n!
0p!
0r!
1C
1A
0B
0?
0=
1p!
0n!
0m!
0C
1m!
#1020
0!
0,
0/
#1030
1!
1,
1/
0>!
1b!
01
1>
1r!
1?
1=
0p!
#1040
0!
0,
0/
#1050
1!
1,
1/
1>!
1=!
0a!
0b!
11
0>
0?
1@
1p!
0r!
0A
1B
1?
0@
0=
0p!
1n!
1A
0B
1C
0m!
0n!
0C
1m!
#1060
0!
0,
0/
#1070
1!
1,
1/
0>!
1b!
01
1>
1r!
0?
1@
1=
1p!
0A
1B
1n!
1C
0m!
#1080
0!
0,
0/
#1090
1!
1,
1/
1>!
0=!
0<!
1;!
0_!
1`!
1a!
0b!
11
0>
1?
0@
1A
0B
0C
1D
1m!
0n!
0p!
0r!
0E
1F
1C
0D
0A
0?
0=
1p!
1n!
0m!
1k!
1E
0F
0G
1H
1i!
0k!
1I
1G
0H
0i!
0("
0I
1("
#1100
0!
0,
0/
#1110
1!
1,
1/
0>!
1b!
01
1>
1r!
1?
1=
0p!
#1120
0!
0,
0/
#1130
1!
1,
1/
1>!
1=!
0a!
0b!
11
0>
0?
1@
1p!
0r!
1A
1?
0@
0=
0p!
0n!
0A
1n!
#1140
0!
0,
0/
#1150
1!
1,
1/
0>!
1b!
01
1>
1r!
0?
1@
1=
1p!
1A
0n!
#1160
0!
0,
0/
#1170
1!
1,
1/
1>!
0=!
1<!
0`!
1a!
0b!
11
0>
1?
0@
0A
1B
1n!
0p!
0r!
0C
1D
1A
0B
0?
0=
1p!
0n!
1m!
1C
0D
0E
1F
1k!
0m!
0G
1H
1E
0F
0k!
1i!
1G
0H
1I
0("
0i!
0I
1("
#1180
0!
0,
0/
#1190
1!
1,
1/
0>!
1b!
01
1>
1r!
1?
1=
0p!
#1200
0!
0,
0/
#1210
1!
1,
1/
1>!
1=!
0a!
0b!
11
0>
0?
1@
1p!
0r!
0A
1B
1?
0@
0=
0p!
1n!
1A
0B
0C
1D
1m!
0n!
0E
1F
1C
0D
0m!
1k!
1E
0F
0G
1H
1i!
0k!
1I
1G
0H
0i!
0("
0I
1("
#1220
0!
0,
0/
#1230
1!
1,
1/
0>!
1b!
01
1>
1r!
0?
1@
1=
1p!
0A
1B
1n!
0C
1D
1m!
0E
1F
1k!
0G
1H
1i!
1I
1:
0("
0d!
#1240
0!
0,
0/
#1250
1!
1,
1/
1>!
0=!
0<!
0;!
0:!
09!
18!
0\!
1]!
1^!
1_!
1`!
1a!
0b!
11
0>
1?
0@
1A
0B
1C
0D
1E
0F
1G
0H
0I
1J
1("
0i!
0k!
0m!
0n!
0p!
0r!
1K
1I
0J
0G
0E
0C
0A
0?
0=
0:
1p!
1n!
1m!
1k!
1i!
0("
0&"
0K
1d!
1&"
#1260
0!
0,
0/
#1270
1!
1,
1/
0>!
1b!
01
1>
1r!
1?
1:
1=
0p!
0d!
0:
1d!
#1280
0!
0,
0/
#1290
1!
1,
1/
1>!
1=!
0a!
0b!
11
0>
0?
1@
1p!
0r!
1A
1?
0@
0=
0p!
0n!
0A
1n!
#1300
0!
0,
0/
#1310
1!
1,
1/
0>!
1b!
01
1>
1r!
0?
1@
1=
1p!
1A
1:
0n!
0d!
0:
1d!
#1320
0!
0,
0/
#1330
1!
1,
1/
1>!
0=!
1<!
0`!
1a!
0b!
11
0>
1?
0@
0A
1B
1n!
0p!
0r!
1C
1A
0B
0?
0=
1p!
0n!
0m!
0C
1m!
#1340
0!
0,
0/
#1350
1!
1,
1/
0>!
1b!
01
1>
1r!
1?
1=
0p!
#1360
0!
0,
0/
#1370
1!
1,
1/
1>!
1=!
0a!
0b!
11
0>
0?
1@
1p!
0r!
0A
1B
1?
0@
0=
0p!
1n!
1A
0B
1C
0m!
0n!
0C
1m!
#1380
0!
0,
0/
#1390
1!
1,
1/
0>!
1b!
01
1>
1r!
0?
1@
1=
1p!
0A
1B
1n!
1C
1:
0m!
0d!
0:
1d!
#1400
0!
0,
0/
#1410
1!
1,
1/
1>!
0=!
0<!
1;!
0_!
1`!
1a!
0b!
11
0>
1?
0@
1A
0B
0C
1D
1m!
0n!
0p!
0r!
1E
1C
0D
0A
0?
0=
1p!
1n!
0m!
0k!
0E
1k!
#1420
0!
0,
0/
#1430
1!
1,
1/
0>!
1b!
01
1>
1r!
1?
1=
0p!
#1440
0!
0,
0/
#1450
1!
1,
1/
1>!
1=!
0a!
0b!
11
0>
0?
1@
1p!
0r!
1A
1?
0@
0=
0p!
0n!
0A
1n!
#1460
0!
0,
0/
#1470
1!
1,
1/
0>!
1b!
01
1>
1r!
0?
1@
1=
1p!
1A
0n!
#1480
0!
0,
0/
#1490
1!
1,
1/
1>!
0=!
1<!
0`!
1a!
0b!
11
0>
1?
0@
0A
1B
1n!
0p!
0r!
0C
1D
1A
0B
0?
0=
1p!
0n!
1m!
1C
0D
1E
0k!
0m!
0E
1k!
#1500
0!
0,
0/
#1510
1!
1,
1/
0>!
1b!
01
1>
1r!
1?
1=
0p!
#1520
0!
0,
0/
#1530
1!
1,
1/
1>!
1=!
0a!
0b!
11
0>
0?
1@
1p!
0r!
0A
1B
1?
0@
0=
0p!
1n!
1A
0B
0C
1D
1m!
0n!
1E
1C
0D
0m!
0k!
0E
1k!
#1540
0!
0,
0/
#1550
1!
1,
1/
0>!
1b!
01
1>
1r!
0?
1@
1=
1p!
0A
1B
1n!
0C
1D
1m!
1E
1:
0k!
0d!
0:
1d!
#1560
0!
0,
0/
#1570
1!
1,
1/
1>!
0=!
0<!
0;!
1:!
0^!
1_!
1`!
1a!
0b!
11
0>
1?
0@
1A
0B
1C
0D
0E
1F
1k!
0m!
0n!
0p!
0r!
1G
1E
0F
0C
0A
0?
0=
1p!
1n!
1m!
0k!
0i!
0G
1i!
#1580
0!
0,
0/
#1590
1!
1,
1/
0>!
1b!
01
1>
1r!
1?
1=
0p!
#1600
0!
0,
0/
#1610
1!
1,
1/
1>!
1=!
0a!
0b!
11
0>
0?
1@
1p!
0r!
1A
1?
0@
0=
0p!
0n!
0A
1n!
#1620
0!
0,
0/
#1630
1!
1,
1/
0>!
1b!
01
1>
1r!
0?
1@
1=
1p!
1A
0n!
#1640
0!
0,
0/
#1650
1!
1,
1/
1>!
0=!
1<!
0`!
1a!
0b!
11
0>
1?
0@
0A
1B
1n!
0p!
0r!
1C
1A
0B
0?
0=
1p!
0n!
0m!
0C
1m!
#1660
0!
0,
0/
#1670
1!
1,
1/
0>!
1b!
01
1>
1r!
1?
1=
0p!
#1680
0!
0,
0/
#1690
1!
1,
1/
1>!
1=!
0a!
0b!
11
0>
0?
1@
1p!
0r!
0A
1B
1?
0@
0=
0p!
1n!
1A
0B
1C
0m!
0n!
0C
1m!
#1700
0!
0,
0/
#1710
1!
1,
1/
0>!
1b!
01
1>
1r!
0?
1@
1=
1p!
0A
1B
1n!
1C
0m!
#1720
0!
0,
0/
#1730
1!
1,
1/
1>!
0=!
0<!
1;!
0_!
1`!
1a!
0b!
11
0>
1?
0@
1A
0B
0C
1D
1m!
0n!
0p!
0r!
0E
1F
1C
0D
0A
0?
0=
1p!
1n!
0m!
1k!
1E
0F
1G
0i!
0k!
0G
1i!
#1740
0!
0,
0/
#1750
1!
1,
1/
0>!
1b!
01
1>
1r!
1?
1=
0p!
#1760
0!
0,
0/
#1770
1!
1,
1/
1>!
1=!
0a!
0b!
11
0>
0?
1@
1p!
0r!
1A
1?
0@
0=
0p!
0n!
0A
1n!
#1780
0!
0,
0/
#1790
1!
1,
1/
0>!
1b!
01
1>
1r!
0?
1@
1=
1p!
1A
0n!
#1800
0!
0,
0/
#1810
1!
1,
1/
1>!
0=!
1<!
0`!
1a!
0b!
11
0>
1?
0@
0A
1B
1n!
0p!
0r!
0C
1D
1A
0B
0?
0=
1p!
0n!
1m!
1C
0D
0E
1F
1k!
0m!
1G
1E
0F
0k!
0i!
0G
1i!
#1820
0!
0,
0/
#1830
1!
1,
1/
0>!
1b!
01
1>
1r!
1?
1=
0p!
#1840
0!
0,
0/
#1850
1!
1,
1/
1>!
1=!
0a!
0b!
11
0>
0?
1@
1p!
0r!
0A
1B
1?
0@
0=
0p!
1n!
1A
0B
0C
1D
1m!
0n!
0E
1F
1C
0D
0m!
1k!
1E
0F
1G
0i!
0k!
0G
1i!
#1860
0!
0,
0/
#1870
1!
1,
1/
0>!
1b!
01
1>
1r!
0?
1@
1=
1p!
0A
1B
1n!
0C
1D
1m!
0E
1F
1k!
1G
1:
0i!
0d!
0:
1d!
#1880
0!
0,
0/
#1890
1!
1,
1/
1>!
0=!
0<!
0;!
0:!
19!
0]!
1^!
1_!
1`!
1a!
0b!
11
0>
1?
0@
1A
0B
1C
0D
1E
0F
0G
1H
1i!
0k!
0m!
0n!
0p!
0r!
0I
1J
1G
0H
0E
0C
0A
0?
0=
1p!
1n!
1m!
1k!
0i!
1("
1I
0J
1K
0&"
0("
0K
1&"
#1900
0!
0,
0/
#1910
1!
1,
1/
0>!
1b!
01
1>
1r!
1?
1=
0p!
#1920
0!
0,
0/
#1930
1!
1,
1/
1>!
1=!
0a!
0b!
11
0>
0?
1@
1p!
0r!
1A
1?
0@
0=
0p!
0n!
0A
1n!
#1940
0!
0,
0/
#1950
1!
1,
1/
0>!
1b!
01
1>
1r!
0?
1@
1=
1p!
1A
0n!
#1960
0!
0,
0/
#1970
1!
1,
1/
1>!
0=!
1<!
0`!
1a!
0b!
11
0>
1?
0@
0A
1B
1n!
0p!
0r!
1C
1A
0B
0?
0=
1p!
0n!
0m!
0C
1m!
#1980
0!
0,
0/
#1990
1!
1,
1/
0>!
1b!
01
1>
1r!
1?
1=
0p!
#2000
0!
0,
0/
#2010
1!
1,
1/
1>!
1=!
0a!
0b!
11
0>
0?
1@
1p!
0r!
0A
1B
1?
0@
0=
0p!
1n!
1A
0B
1C
0m!
0n!
0C
1m!
#2020
0!
0,
0/
