Lab03/Parte 1/lab03-xbar-gen-5/simulation/qsim/xbar_gen_5.msim.vcd
$comment
	File created using the following command:
		vcd file xbar_gen_5.msim.vcd -direction
$end
$date
	Mon Mar 19 13:26:57 2018
$end
$version
	ModelSim Version 10.5b
$end
$timescale
	1ps
$end

$scope module xbar_stage_8_vlg_vec_tst $end
$var reg 8 ! SW [7:0] $end
$var wire 1 " LEDR [0] $end

$scope module i1 $end
$var wire 1 # gnd $end
$var wire 1 $ vcc $end
$var wire 1 % unknown $end
$var tri1 1 & devclrn $end
$var tri1 1 ' devpor $end
$var tri1 1 ( devoe $end
$var wire 1 ) ~QUARTUS_CREATED_GND~I_combout $end
$var wire 1 * SW[0]~input_o $end
$var wire 1 + SW[2]~input_o $end
$var wire 1 , SW[3]~input_o $end
$var wire 1 - SW[1]~input_o $end
$var wire 1 . xbar5|G1:7:xbar|y1~0_combout $end
$var wire 1 / SW[4]~input_o $end
$var wire 1 0 SW[6]~input_o $end
$var wire 1 1 SW[7]~input_o $end
$var wire 1 2 SW[5]~input_o $end
$var wire 1 3 xbar5|G1:7:xbar|y1~1_combout $end
$upscope $end
$upscope $end
$enddefinitions $end
#0
$dumpvars
b0 !
1"
0#
1$
x%
1&
1'
1(
0)
0*
0+
0,
0-
0.
0/
00
01
02
03
$end
#3125
b1 !
1*
1.
13
0"
#6250
b11 !
b10 !
0*
1-
#9375
b11 !
1*
0.
03
1"
#12500
b111 !
b101 !
b100 !
0*
0-
1+
1.
13
0"
#15625
b101 !
1*
0.
03
1"
#18750
b111 !
b110 !
0*
1-
#21875
b111 !
1*
1.
13
0"
#25000
b1111 !
b1011 !
b1001 !
b1000 !
0*
0-
0+
1,
#28125
b1001 !
1*
0.
03
1"
#31250
b1011 !
b1010 !
0*
1-
#34375
b1011 !
1*
1.
13
0"
#37500
b1111 !
b1101 !
b1100 !
0*
0-
1+
0.
03
1"
#40625
b1101 !
1*
1.
13
0"
#43750
b1111 !
b1110 !
0*
1-
#46875
b1111 !
1*
0.
03
1"
#50000
b11111 !
b10111 !
b10011 !
b10001 !
b10000 !
0*
0-
0+
0,
1/
13
0"
#53125
b10001 !
1*
1.
03
1"
#56250
b10011 !
b10010 !
0*
1-
#59375
b10011 !
1*
0.
13
0"
#62500
b10111 !
b10101 !
b10100 !
0*
0-
1+
1.
03
1"
#65625
b10101 !
1*
0.
13
0"
#68750
b10111 !
b10110 !
0*
1-
#71875
b10111 !
1*
1.
03
1"
#75000
b11111 !
b11011 !
b11001 !
b11000 !
0*
0-
0+
1,
#78125
b11001 !
1*
0.
13
0"
#81250
b11011 !
b11010 !
0*
1-
#84375
b11011 !
1*
1.
03
1"
#87500
b11111 !
b11101 !
b11100 !
0*
0-
1+
0.
13
0"
#90625
b11101 !
1*
1.
03
1"
#93750
b11111 !
b11110 !
0*
1-
#96875
b11111 !
1*
0.
13
0"
#100000
b111111 !
b101111 !
b100111 !
b100011 !
b100001 !
b100000 !
0*
0-
0+
0,
0/
12
#103125
b100001 !
1*
1.
03
1"
#106250
b100011 !
b100010 !
0*
1-
#109375
b100011 !
1*
0.
13
0"
#112500
b100111 !
b100101 !
b100100 !
0*
0-
1+
1.
03
1"
#115625
b100101 !
1*
0.
13
0"
#118750
b100111 !
b100110 !
0*
1-
#121875
b100111 !
1*
1.
03
1"
#125000
b101111 !
b101011 !
b101001 !
b101000 !
0*
0-
0+
1,
#128125
b101001 !
1*
0.
13
0"
#131250
b101011 !
b101010 !
0*
1-
#134375
b101011 !
1*
1.
03
1"
#137500
b101111 !
b101101 !
b101100 !
0*
0-
1+
0.
13
0"
#140625
b101101 !
1*
1.
03
1"
#143750
b101111 !
b101110 !
0*
1-
#146875
b101111 !
1*
0.
13
0"
#150000
b111111 !
b110111 !
b110011 !
b110001 !
b110000 !
0*
0-
0+
0,
1/
03
1"
#153125
b110001 !
1*
1.
13
0"
#156250
b110011 !
b110010 !
0*
1-
#159375
b110011 !
1*
0.
03
1"
#162500
b110111 !
b110101 !
b110100 !
0*
0-
1+
1.
13
0"
#165625
b110101 !
1*
0.
03
1"
#168750
b110111 !
b110110 !
0*
1-
#171875
b110111 !
1*
1.
13
0"
#175000
b111111 !
b111011 !
b111001 !
b111000 !
0*
0-
0+
1,
#178125
b111001 !
1*
0.
03
1"
#181250
b111011 !
b111010 !
0*
1-
#184375
b111011 !
1*
1.
13
0"
#187500
b111111 !
b111101 !
b111100 !
0*
0-
1+
0.
03
1"
#190625
b111101 !
1*
1.
13
0"
#193750
b111111 !
b111110 !
0*
1-
#196875
b111111 !
1*
0.
03
1"
#200000
b1111111 !
b1011111 !
b1001111 !
b1000111 !
b1000011 !
b1000001 !
b1000000 !
0*
0-
0+
0,
0/
02
10
13
0"
#203125
b1000001 !
1*
1.
03
1"
#206250
b1000011 !
b1000010 !
0*
1-
#209375
b1000011 !
1*
0.
13
0"
#212500
b1000111 !
b1000101 !
b1000100 !
0*
0-
1+
1.
03
1"
#215625
b1000101 !
1*
0.
13
0"
#218750
b1000111 !
b1000110 !
0*
1-
#221875
b1000111 !
1*
1.
03
1"
#225000
b1001111 !
b1001011 !
b1001001 !
b1001000 !
0*
0-
0+
1,
#228125
b1001001 !
1*
0.
13
0"
#231250
b1001011 !
b1001010 !
0*
1-
#234375
b1001011 !
1*
1.
03
1"
#237500
b1001111 !
b1001101 !
b1001100 !
0*
0-
1+
0.
13
0"
#240625
b1001101 !
1*
1.
03
1"
#243750
b1001111 !
b1001110 !
0*
1-
#246875
b1001111 !
1*
0.
13
0"
#250000
b1011111 !
b1010111 !
b1010011 !
b1010001 !
b1010000 !
0*
0-
0+
0,
1/
03
1"
#253125
b1010001 !
1*
1.
13
0"
#256250
b1010011 !
b1010010 !
0*
1-
#259375
b1010011 !
1*
0.
03
1"
#262500
b1010111 !
b1010101 !
b1010100 !
0*
0-
1+
1.
13
0"
#265625
b1010101 !
1*
0.
03
1"
#268750
b1010111 !
b1010110 !
0*
1-
#271875
b1010111 !
1*
1.
13
0"
#275000
b1011111 !
b1011011 !
b1011001 !
b1011000 !
0*
0-
0+
1,
#278125
b1011001 !
1*
0.
03
1"
#281250
b1011011 !
b1011010 !
0*
1-
#284375
b1011011 !
1*
1.
13
0"
#287500
b1011111 !
b1011101 !
b1011100 !
0*
0-
1+
0.
03
1"
#290625
b1011101 !
1*
1.
13
0"
#293750
b1011111 !
b1011110 !
0*
1-
#296875
b1011111 !
1*
0.
03
1"
#300000
b1111111 !
b1101111 !
b1100111 !
b1100011 !
b1100001 !
b1100000 !
0*
0-
0+
0,
0/
12
#303125
b1100001 !
1*
1.
13
0"
#306250
b1100011 !
b1100010 !
0*
1-
#309375
b1100011 !
1*
0.
03
1"
#312500
b1100111 !
b1100101 !
b1100100 !
0*
0-
1+
1.
13
0"
#315625
b1100101 !
1*
0.
03
1"
#318750
b1100111 !
b1100110 !
0*
1-
#321875
b1100111 !
1*
1.
13
0"
#325000
b1101111 !
b1101011 !
b1101001 !
b1101000 !
0*
0-
0+
1,
#328125
b1101001 !
1*
0.
03
1"
#331250
b1101011 !
b1101010 !
0*
1-
#334375
b1101011 !
1*
1.
13
0"
#337500
b1101111 !
b1101101 !
b1101100 !
0*
0-
1+
0.
03
1"
#340625
b1101101 !
1*
1.
13
0"
#343750
b1101111 !
b1101110 !
0*
1-
#346875
b1101111 !
1*
0.
03
1"
#350000
b1111111 !
b1110111 !
b1110011 !
b1110001 !
b1110000 !
0*
0-
0+
0,
1/
13
0"
#353125
b1110001 !
1*
1.
03
1"
#356250
b1110011 !
b1110010 !
0*
1-
#359375
b1110011 !
1*
0.
13
0"
#362500
b1110111 !
b1110101 !
b1110100 !
0*
0-
1+
1.
03
1"
#365625
b1110101 !
1*
0.
13
0"
#368750
b1110111 !
b1110110 !
0*
1-
#371875
b1110111 !
1*
1.
03
1"
#375000
b1111111 !
b1111011 !
b1111001 !
b1111000 !
0*
0-
0+
1,
#378125
b1111001 !
1*
0.
13
0"
#381250
b1111011 !
b1111010 !
0*
1-
#384375
b1111011 !
1*
1.
03
1"
#387500
b1111111 !
b1111101 !
b1111100 !
0*
0-
1+
0.
13
0"
#390625
b1111101 !
1*
1.
03
1"
#393750
b1111111 !
b1111110 !
0*
1-
#396875
b1111111 !
1*
0.
13
0"
#400000
b11111111 !
b10111111 !
b10011111 !
b10001111 !
b10000111 !
b10000011 !
b10000001 !
b10000000 !
0*
0-
0+
0,
0/
02
00
11
#403125
b10000001 !
1*
1.
03
1"
#406250
b10000011 !
b10000010 !
0*
1-
#409375
b10000011 !
1*
0.
13
0"
#412500
b10000111 !
b10000101 !
b10000100 !
0*
0-
1+
1.
03
1"
#415625
b10000101 !
1*
0.
13
0"
#418750
b10000111 !
b10000110 !
0*
1-
#421875
b10000111 !
1*
1.
03
1"
#425000
b10001111 !
b10001011 !
b10001001 !
b10001000 !
0*
0-
0+
1,
#428125
b10001001 !
1*
0.
13
0"
#431250
b10001011 !
b10001010 !
0*
1-
#434375
b10001011 !
1*
1.
03
1"
#437500
b10001111 !
b10001101 !
b10001100 !
0*
0-
1+
0.
13
0"
#440625
b10001101 !
1*
1.
03
1"
#443750
b10001111 !
b10001110 !
0*
1-
#446875
b10001111 !
1*
0.
13
0"
#450000
b10011111 !
b10010111 !
b10010011 !
b10010001 !
b10010000 !
0*
0-
0+
0,
1/
03
1"
#453125
b10010001 !
1*
1.
13
0"
#456250
b10010011 !
b10010010 !
0*
1-
#459375
b10010011 !
1*
0.
03
1"
#462500
b10010111 !
b10010101 !
b10010100 !
0*
0-
1+
1.
13
0"
#465625
b10010101 !
1*
0.
03
1"
#468750
b10010111 !
b10010110 !
0*
1-
#471875
b10010111 !
1*
1.
13
0"
#475000
b10011111 !
b10011011 !
b10011001 !
b10011000 !
0*
0-
0+
1,
#478125
b10011001 !
1*
0.
03
1"
#481250
b10011011 !
b10011010 !
0*
1-
#484375
b10011011 !
1*
1.
13
0"
#487500
b10011111 !
b10011101 !
b10011100 !
0*
0-
1+
0.
03
1"
#490625
b10011101 !
1*
1.
13
0"
#493750
b10011111 !
b10011110 !
0*
1-
#496875
b10011111 !
1*
0.
03
1"
#500000
b10111111 !
b10101111 !
b10100111 !
b10100011 !
b10100001 !
b10100000 !
0*
0-
0+
0,
0/
12
#503125
b10100001 !
1*
1.
13
0"
#506250
b10100011 !
b10100010 !
0*
1-
#509375
b10100011 !
1*
0.
03
1"
#512500
b10100111 !
b10100101 !
b10100100 !
0*
0-
1+
1.
13
0"
#515625
b10100101 !
1*
0.
03
1"
#518750
b10100111 !
b10100110 !
0*
1-
#521875
b10100111 !
1*
1.
13
0"
#525000
b10101111 !
b10101011 !
b10101001 !
b10101000 !
0*
0-
0+
1,
#528125
b10101001 !
1*
0.
03
1"
#531250
b10101011 !
b10101010 !
0*
1-
#534375
b10101011 !
1*
1.
13
0"
#537500
b10101111 !
b10101101 !
b10101100 !
0*
0-
1+
0.
03
1"
#540625
b10101101 !
1*
1.
13
0"
#543750
b10101111 !
b10101110 !
0*
1-
#546875
b10101111 !
1*
0.
03
1"
#550000
b10111111 !
b10110111 !
b10110011 !
b10110001 !
b10110000 !
0*
0-
0+
0,
1/
13
0"
#553125
b10110001 !
1*
1.
03
1"
#556250
b10110011 !
b10110010 !
0*
1-
#559375
b10110011 !
1*
0.
13
0"
#562500
b10110111 !
b10110101 !
b10110100 !
0*
0-
1+
1.
03
1"
#565625
b10110101 !
1*
0.
13
0"
#568750
b10110111 !
b10110110 !
0*
1-
#571875
b10110111 !
1*
1.
03
1"
#575000
b10111111 !
b10111011 !
b10111001 !
b10111000 !
0*
0-
0+
1,
#578125
b10111001 !
1*
0.
13
0"
#581250
b10111011 !
b10111010 !
0*
1-
#584375
b10111011 !
1*
1.
03
1"
#587500
b10111111 !
b10111101 !
b10111100 !
0*
0-
1+
0.
13
0"
#590625
b10111101 !
1*
1.
03
1"
#593750
b10111111 !
b10111110 !
0*
1-
#596875
b10111111 !
1*
0.
13
0"
#600000
b11111111 !
b11011111 !
b11001111 !
b11000111 !
b11000011 !
b11000001 !
b11000000 !
0*
0-
0+
0,
0/
02
10
03
1"
#603125
b11000001 !
1*
1.
13
0"
#606250
b11000011 !
b11000010 !
0*
1-
#609375
b11000011 !
1*
0.
03
1"
#612500
b11000111 !
b11000101 !
b11000100 !
0*
0-
1+
1.
13
0"
#615625
b11000101 !
1*
0.
03
1"
#618750
b11000111 !
b11000110 !
0*
1-
#621875
b11000111 !
1*
1.
13
0"
#625000
b11001111 !
b11001011 !
b11001001 !
b11001000 !
0*
0-
0+
1,
#628125
b11001001 !
1*
0.
03
1"
#631250
b11001011 !
b11001010 !
0*
1-
#634375
b11001011 !
1*
1.
13
0"
#637500
b11001111 !
b11001101 !
b11001100 !
0*
0-
1+
0.
03
1"
#640625
b11001101 !
1*
1.
13
0"
#643750
b11001111 !
b11001110 !
0*
1-
#646875
b11001111 !
1*
0.
03
1"
#650000
b11011111 !
b11010111 !
b11010011 !
b11010001 !
b11010000 !
0*
0-
0+
0,
1/
13
0"
#653125
b11010001 !
1*
1.
03
1"
#656250
b11010011 !
b11010010 !
0*
1-
#659375
b11010011 !
1*
0.
13
0"
#662500
b11010111 !
b11010101 !
b11010100 !
0*
0-
1+
1.
03
1"
#665625
b11010101 !
1*
0.
13
0"
#668750
b11010111 !
b11010110 !
0*
1-
#671875
b11010111 !
1*
1.
03
1"
#675000
b11011111 !
b11011011 !
b11011001 !
b11011000 !
0*
0-
0+
1,
#678125
b11011001 !
1*
0.
13
0"
#681250
b11011011 !
b11011010 !
0*
1-
#684375
b11011011 !
1*
1.
03
1"
#687500
b11011111 !
b11011101 !
b11011100 !
0*
0-
1+
0.
13
0"
#690625
b11011101 !
1*
1.
03
1"
#693750
b11011111 !
b11011110 !
0*
1-
#696875
b11011111 !
1*
0.
13
0"
#700000
b11111111 !
b11101111 !
b11100111 !
b11100011 !
b11100001 !
b11100000 !
0*
0-
0+
0,
0/
12
#703125
b11100001 !
1*
1.
03
1"
#706250
b11100011 !
b11100010 !
0*
1-
#709375
b11100011 !
1*
0.
13
0"
#712500
b11100111 !
b11100101 !
b11100100 !
0*
0-
1+
1.
03
1"
#715625
b11100101 !
1*
0.
13
0"
#718750
b11100111 !
b11100110 !
0*
1-
#721875
b11100111 !
1*
1.
03
1"
#725000
b11101111 !
b11101011 !
b11101001 !
b11101000 !
0*
0-
0+
1,
#728125
b11101001 !
1*
0.
13
0"
#731250
b11101011 !
b11101010 !
0*
1-
#734375
b11101011 !
1*
1.
03
1"
#737500
b11101111 !
b11101101 !
b11101100 !
0*
0-
1+
0.
13
0"
#740625
b11101101 !
1*
1.
03
1"
#743750
b11101111 !
b11101110 !
0*
1-
#746875
b11101111 !
1*
0.
13
0"
#750000
b11111111 !
b11110111 !
b11110011 !
b11110001 !
b11110000 !
0*
0-
0+
0,
1/
03
1"
#753125
b11110001 !
1*
1.
13
0"
#756250
b11110011 !
b11110010 !
0*
1-
#759375
b11110011 !
1*
0.
03
1"
#762500
b11110111 !
b11110101 !
b11110100 !
0*
0-
1+
1.
13
0"
#765625
b11110101 !
1*
0.
03
1"
#768750
b11110111 !
b11110110 !
0*
1-
#771875
b11110111 !
1*
1.
13
0"
#775000
b11111111 !
b11111011 !
b11111001 !
b11111000 !
0*
0-
0+
1,
#778125
b11111001 !
1*
0.
03
1"
#781250
b11111011 !
b11111010 !
0*
1-
#784375
b11111011 !
1*
1.
13
0"
#787500
b11111111 !
b11111101 !
b11111100 !
0*
0-
1+
0.
03
1"
#790625
b11111101 !
1*
1.
13
0"
#793750
b11111111 !
b11111110 !
0*
1-
#796875
b11111111 !
1*
0.
03
1"
