Lab06/Latches/simulation/qsim/Latches.msim.vcd
$comment
	File created using the following command:
		vcd file Latches.msim.vcd -direction
$end
$date
	Mon Apr  2 17:54:38 2018
$end
$version
	ModelSim Version 10.5b
$end
$timescale
	1ps
$end

$scope module ff_t_vhd_vec_tst $end
$var wire 1 ! Clear $end
$var wire 1 " Clk $end
$var wire 1 # Preset $end
$var wire 1 $ Q $end
$var wire 1 % Q_n $end
$var wire 1 & T $end

$scope module i1 $end
$var wire 1 ' gnd $end
$var wire 1 ( vcc $end
$var wire 1 ) unknown $end
$var wire 1 * devoe $end
$var wire 1 + devclrn $end
$var wire 1 , devpor $end
$var wire 1 - ww_devoe $end
$var wire 1 . ww_devclrn $end
$var wire 1 / ww_devpor $end
$var wire 1 0 ww_T $end
$var wire 1 1 ww_Clk $end
$var wire 1 2 ww_Q $end
$var wire 1 3 ww_Q_n $end
$var wire 1 4 ww_Preset $end
$var wire 1 5 ww_Clear $end
$var wire 1 6 \Q~output_o\ $end
$var wire 1 7 \Q_n~output_o\ $end
$var wire 1 8 \Clk~input_o\ $end
$var wire 1 9 \T~input_o\ $end
$var wire 1 : \var~5_combout\ $end
$var wire 1 ; \Preset~input_o\ $end
$var wire 1 < \Clear~input_o\ $end
$var wire 1 = \var~1_combout\ $end
$var wire 1 > \var~3_combout\ $end
$var wire 1 ? \var~0_combout\ $end
$var wire 1 @ \var~_emulated_q\ $end
$var wire 1 A \var~2_combout\ $end
$var wire 1 B \ALT_INV_var~_emulated_q\ $end
$var wire 1 C \ALT_INV_var~5_combout\ $end
$var wire 1 D \ALT_INV_var~2_combout\ $end
$var wire 1 E \ALT_INV_T~input_o\ $end
$var wire 1 F \ALT_INV_Clear~input_o\ $end
$var wire 1 G \ALT_INV_Preset~input_o\ $end
$var wire 1 H \ALT_INV_var~1_combout\ $end
$var wire 1 I \ALT_INV_var~0_combout\ $end
$upscope $end
$upscope $end
$enddefinitions $end
#0
$dumpvars
0!
0"
0#
x$
x%
0&
0'
1(
x)
1*
1+
1,
1-
1.
1/
00
01
x2
x3
04
05
x6
x7
08
09
x:
0;
0<
x=
x>
0?
0@
xA
1B
xC
xD
1E
1F
1G
xH
1I
$end
#10000
1!
1#
1"
15
14
11
18
1;
1<
0F
0G
x@
0=
1?
0A
xB
1D
0I
1H
0@
0:
1C
1B
06
17
0>
02
13
0$
1%
#30000
0!
0#
0"
05
04
01
08
0;
0<
1F
1G
0?
1I
#200000
1&
10
19
0E
1:
0C
1>
#210000
1"
11
18
1@
0B
1A
0D
0:
1C
16
07
0>
12
03
1$
0%
#240000
0"
01
08
#260000
1#
14
1;
0G
1=
1?
0I
0H
1>
0@
1B
#290000
0#
04
0;
1G
0?
1I
#400000
0&
00
09
1E
1:
0C
0>
#410000
1"
11
18
#420000
0"
01
08
#430000
1!
15
1<
0F
0=
1?
0A
1D
0I
1H
1>
0:
1C
06
17
0>
02
13
0$
1%
#450000
0!
05
0<
1F
0?
1I
#510000
1"
1#
11
14
1;
18
0G
1=
1?
1A
0D
0I
0H
1>
1:
0C
16
07
0>
12
03
1$
0%
#530000
0"
0#
01
04
0;
08
1G
0?
1I
#600000
1&
10
19
0E
0:
1C
1>
#610000
1"
11
18
1@
0B
0A
1D
1:
0C
06
17
0>
02
13
0$
1%
#650000
0"
01
08
