Lab06/Latches/simulation/qsim/Latches.msim.vcd
$comment
	File created using the following command:
		vcd file Latches.msim.vcd -direction
$end
$date
	Tue Apr  3 14:59:01 2018
$end
$version
	ModelSim Version 10.5b
$end
$timescale
	1ps
$end

$scope module latches_ffs_vhd_vec_tst $end
$var wire 1 ! A $end
$var wire 1 " B $end
$var wire 1 # clear $end
$var wire 1 $ clock $end
$var wire 1 % preset $end
$var wire 1 & Q [1] $end
$var wire 1 ' Q [2] $end
$var wire 1 ( Q [3] $end
$var wire 1 ) Q [4] $end
$var wire 1 * Q [5] $end
$var wire 1 + Q [6] $end

$scope module i1 $end
$var wire 1 , gnd $end
$var wire 1 - vcc $end
$var wire 1 . unknown $end
$var wire 1 / devoe $end
$var wire 1 0 devclrn $end
$var wire 1 1 devpor $end
$var wire 1 2 ww_devoe $end
$var wire 1 3 ww_devclrn $end
$var wire 1 4 ww_devpor $end
$var wire 1 5 ww_clock $end
$var wire 1 6 ww_preset $end
$var wire 1 7 ww_clear $end
$var wire 1 8 ww_A $end
$var wire 1 9 ww_B $end
$var wire 1 : ww_Q [1] $end
$var wire 1 ; ww_Q [2] $end
$var wire 1 < ww_Q [3] $end
$var wire 1 = ww_Q [4] $end
$var wire 1 > ww_Q [5] $end
$var wire 1 ? ww_Q [6] $end
$var wire 1 @ \Q[6]~output_o\ $end
$var wire 1 A \Q[5]~output_o\ $end
$var wire 1 B \Q[4]~output_o\ $end
$var wire 1 C \Q[3]~output_o\ $end
$var wire 1 D \Q[2]~output_o\ $end
$var wire 1 E \Q[1]~output_o\ $end
$var wire 1 F \A~input_o\ $end
$var wire 1 G \B~input_o\ $end
$var wire 1 H \lff1|process_0~0_combout\ $end
$var wire 1 I \lff1|Qa~combout\ $end
$var wire 1 J \clock~input_o\ $end
$var wire 1 K \clear~input_o\ $end
$var wire 1 L \preset~input_o\ $end
$var wire 1 M \lff5|var~q\ $end
$var wire 1 N \lff5|var~0_combout\ $end
$var wire 1 O \lff5|Q~q\ $end
$var wire 1 P \lff2|comb~1_combout\ $end
$var wire 1 Q \lff2|comb~0_combout\ $end
$var wire 1 R \lff2|Q~combout\ $end
$var wire 1 S \lff4|var~0_combout\ $end
$var wire 1 T \lff4|Q~q\ $end
$var wire 1 U \lff6|var~q\ $end
$var wire 1 V \lff6|var~0_combout\ $end
$var wire 1 W \lff6|Q~q\ $end
$var wire 1 X \lff3|Q~combout\ $end
$var wire 1 Y \ALT_INV_clock~input_o\ $end
$var wire 1 Z \ALT_INV_preset~input_o\ $end
$var wire 1 [ \ALT_INV_clear~input_o\ $end
$var wire 1 \ \ALT_INV_B~input_o\ $end
$var wire 1 ] \ALT_INV_A~input_o\ $end
$var wire 1 ^ \lff3|ALT_INV_Q~combout\ $end
$var wire 1 _ \lff2|ALT_INV_Q~combout\ $end
$var wire 1 ` \lff1|ALT_INV_Qa~combout\ $end
$var wire 1 a \lff6|ALT_INV_var~q\ $end
$var wire 1 b \lff2|ALT_INV_comb~1_combout\ $end
$var wire 1 c \lff2|ALT_INV_comb~0_combout\ $end
$var wire 1 d \lff5|ALT_INV_var~q\ $end
$var wire 1 e \lff1|ALT_INV_process_0~0_combout\ $end
$upscope $end
$upscope $end
$enddefinitions $end
#0
$dumpvars
1!
1"
1#
0$
1%
0,
1-
x.
1/
10
11
12
13
14
05
16
17
18
19
1@
0A
xB
0C
0D
xE
1F
1G
0H
1I
0J
1K
1L
0M
0N
0O
0P
0Q
xR
0S
0T
0U
0V
0W
xX
1Y
0Z
0[
0\
0]
x^
x_
0`
1a
1b
1c
1d
1e
x&
0'
0(
x)
0*
1+
x:
0;
0<
x=
0>
1?
$end
#10000
0!
0#
0%
08
07
06
0L
0K
0F
1]
1[
1Z
1H
0e
0I
1`
0@
0?
0+
#20000
0"
09
0G
1\
0H
1e
#30000
1"
19
1G
0\
1H
0e
#40000
0"
09
0G
1\
0H
1e
#50000
1!
18
1F
0]
1I
1N
1S
1V
0`
1@
1?
1+
#60000
0!
08
0F
1]
0N
0S
0V
#90000
1!
1%
18
16
1L
1F
0]
0Z
1N
1S
1V
#100000
0%
1$
06
15
1J
0L
1Z
0Y
1M
1O
1T
1U
1W
1P
1X
0a
0d
0^
0b
0V
1R
1D
1C
1A
0_
1E
1;
1<
1>
1:
1*
1(
1'
1&
1B
1=
1)
#110000
1"
19
1G
0\
0N
0P
1b
#120000
0"
1%
09
16
1L
0G
1\
0Z
1V
1N
1P
0b
#130000
1"
0%
19
06
0L
1G
0\
1Z
0V
0N
0P
1b
#140000
0"
0!
1#
09
08
17
1K
0F
0G
1\
1]
0[
0S
0X
1^
0E
0:
0&
#150000
0#
07
0K
1[
1N
1V
#160000
1"
19
1G
0\
1H
0N
1Q
0c
0e
0I
0R
1_
1`
0B
0@
0=
0?
0+
0)
#170000
0"
09
0G
1\
0H
1N
0Q
1c
1e
#190000
1!
18
1F
0]
1I
1P
1S
0V
1X
0^
0b
0`
1R
0_
1E
1@
1:
1?
1+
1&
1B
1=
1)
#200000
1"
0$
19
05
0J
1G
0\
1Y
0N
0P
1b
#210000
0!
08
0F
1]
1H
0S
1V
0e
0I
1`
0@
0?
0+
#220000
0"
09
0G
1\
0H
1N
1e
#240000
1!
18
1F
0]
1I
1S
0V
0`
1@
1?
1+
#250000
0!
08
0F
1]
0S
1V
#290000
1!
1"
18
19
1G
1F
0]
0\
0N
1S
0V
#300000
0!
0"
1$
08
09
15
1J
0G
0F
1]
1\
0Y
0M
0O
0U
0W
1N
0S
1V
0X
1a
1d
1^
0N
0V
0D
0A
0E
0;
0>
0:
0*
0'
0&
#315000
1"
19
1G
0\
1H
1Q
0c
0e
0I
0R
1_
1`
0B
0@
0=
0?
0+
0)
#320000
0"
1!
09
18
1F
0G
1\
0]
1S
1V
1X
0H
1N
1P
0Q
1c
0b
1e
0^
1I
1R
0_
0`
1E
1:
1&
1B
1@
1=
1?
1+
1)
#325000
1"
19
1G
0\
0P
1b
#330000
0"
0!
09
08
0F
0G
1\
1]
0S
0V
0X
0N
1^
0E
0:
0&
#335000
1"
19
1G
0\
1H
1Q
0c
0e
0I
0R
1_
1`
0B
0@
0=
0?
0+
0)
#340000
0"
1!
09
18
1F
0G
1\
0]
1S
1V
1X
0H
1N
1P
0Q
1c
0b
1e
0^
1I
1R
0_
0`
1E
1:
1&
1B
1@
1=
1?
1+
1)
#345000
1"
19
1G
0\
0P
1b
#350000
0"
0!
09
08
0F
0G
1\
1]
0S
0V
0X
0N
1^
0E
0:
0&
#355000
1"
19
1G
0\
1H
1Q
0c
0e
0I
0R
1_
1`
0B
0@
0=
0?
0+
0)
#360000
0"
1!
09
18
1F
0G
1\
0]
1S
1V
1X
0H
1N
1P
0Q
1c
0b
1e
0^
1I
1R
0_
0`
1E
1:
1&
1B
1@
1=
1?
1+
1)
#365000
1"
19
1G
0\
0P
1b
#370000
0"
0!
09
08
0F
0G
1\
1]
0S
0V
0X
0N
1^
0E
0:
0&
#375000
1"
19
1G
0\
1H
1Q
0c
0e
0I
0R
1_
1`
0B
0@
0=
0?
0+
0)
#380000
0"
1!
09
18
1F
0G
1\
0]
1S
1V
1X
0H
1N
1P
0Q
1c
0b
1e
0^
1I
1R
0_
0`
1E
1:
1&
1B
1@
1=
1?
1+
1)
#385000
1"
19
1G
0\
0P
1b
#390000
0"
0!
09
08
0F
0G
1\
1]
0S
0V
0X
0N
1^
0E
0:
0&
#395000
1"
19
1G
0\
1H
1Q
0c
0e
0I
0R
1_
1`
0B
0@
0=
0?
0+
0)
#400000
0"
1!
0$
09
18
05
0J
1F
0G
1\
0]
1Y
1S
1V
0H
1N
0Q
1c
1e
1I
0`
1@
1?
1+
#405000
1"
19
1G
0\
#410000
0"
0!
09
08
0F
0G
1\
1]
0S
0V
0N
#415000
1"
19
1G
0\
1H
0e
0I
1`
0@
0?
0+
#420000
0"
1!
09
18
1F
0G
1\
0]
1S
1V
0H
1N
1e
1I
0`
1@
1?
1+
#425000
1"
19
1G
0\
#430000
0"
0!
09
08
0F
0G
1\
1]
0S
0V
0N
#435000
1"
19
1G
0\
1H
0e
0I
1`
0@
0?
0+
#440000
0"
1!
09
18
1F
0G
1\
0]
1S
1V
0H
1N
1e
1I
0`
1@
1?
1+
#445000
1"
19
1G
0\
#450000
0"
0!
09
08
0F
0G
1\
1]
0S
0V
0N
#455000
1"
19
1G
0\
1H
0e
0I
1`
0@
0?
0+
#460000
0"
1!
09
18
1F
0G
1\
0]
1S
1V
0H
1N
1e
1I
0`
1@
1?
1+
#465000
1"
19
1G
0\
#470000
0"
0!
09
08
0F
0G
1\
1]
0S
0V
0N
#475000
1"
19
1G
0\
1H
0e
0I
1`
0@
0?
0+
#480000
0"
09
0G
1\
0H
1e
#485000
1"
19
1G
0\
1H
0e
#490000
0"
1!
09
18
1F
0G
1\
0]
1S
1V
0H
1N
1e
1I
0`
1@
1?
1+
#495000
1"
19
1G
0\
#500000
0"
0!
1$
09
08
15
1J
0F
0G
1\
1]
0Y
1M
1O
1U
1W
0S
0V
0N
0a
0d
1N
1V
1D
1A
1;
1>
1*
1'
#505000
1"
19
1G
0\
1H
0N
1Q
0c
0e
0I
1`
0@
0?
0+
#510000
0"
09
0G
1\
0H
1N
0Q
1c
1e
#515000
1"
19
1G
0\
1H
0N
1Q
0c
0e
#520000
0"
09
0G
1\
0H
1N
0Q
1c
1e
#525000
1"
19
1G
0\
1H
0N
1Q
0c
0e
#530000
0"
1!
09
18
1F
0G
1\
0]
1S
0V
1X
0H
1N
1P
0Q
1c
0b
1e
0^
1I
1R
0_
0`
1E
1:
1&
1B
1@
1=
1?
1+
1)
#535000
1"
19
1G
0\
0N
0P
1b
#540000
0"
0!
09
08
0F
0G
1\
1]
0S
1V
0X
1N
1^
0E
0:
0&
#545000
1"
19
1G
0\
1H
0N
1Q
0c
0e
0I
0R
1_
1`
0B
0@
0=
0?
0+
0)
#550000
0"
1!
09
18
1F
0G
1\
0]
1S
0V
1X
0H
1N
1P
0Q
1c
0b
1e
0^
1I
1R
0_
0`
1E
1:
1&
1B
1@
1=
1?
1+
1)
#555000
1"
19
1G
0\
0N
0P
1b
#560000
0"
0!
09
08
0F
0G
1\
1]
0S
1V
0X
1N
1^
0E
0:
0&
#565000
1"
19
1G
0\
1H
0N
1Q
0c
0e
0I
0R
1_
1`
0B
0@
0=
0?
0+
0)
#570000
0"
1!
09
18
1F
0G
1\
0]
1S
0V
1X
0H
1N
1P
0Q
1c
0b
1e
0^
1I
1R
0_
0`
1E
1:
1&
1B
1@
1=
1?
1+
1)
#575000
1"
19
1G
0\
0N
0P
1b
#580000
0"
0!
09
08
0F
0G
1\
1]
0S
1V
0X
1N
1^
0E
0:
0&
#585000
1"
19
1G
0\
1H
0N
1Q
0c
0e
0I
0R
1_
1`
0B
0@
0=
0?
0+
0)
#590000
0"
1!
09
18
1F
0G
1\
0]
1S
0V
1X
0H
1N
1P
0Q
1c
0b
1e
0^
1I
1R
0_
0`
1E
1:
1&
1B
1@
1=
1?
1+
1)
#595000
1"
19
1G
0\
0N
0P
1b
#600000
0"
0!
0$
09
08
05
0J
0F
0G
1\
1]
1Y
0S
1V
1N
#605000
1"
19
1G
0\
1H
0N
0e
0I
1`
0@
0?
0+
#610000
0"
1!
09
18
1F
0G
1\
0]
1S
0V
0H
1N
1e
1I
0`
1@
1?
1+
#615000
1"
19
1G
0\
0N
#620000
0"
0!
09
08
0F
0G
1\
1]
0S
1V
1N
#625000
1"
19
1G
0\
1H
0N
0e
0I
1`
0@
0?
0+
#630000
0"
1!
09
18
1F
0G
1\
0]
1S
0V
0H
1N
1e
1I
0`
1@
1?
1+
#635000
1"
19
1G
0\
0N
#640000
0"
0!
09
08
0F
0G
1\
1]
0S
1V
1N
#645000
1"
19
1G
0\
1H
0N
0e
0I
1`
0@
0?
0+
#650000
0"
1!
09
18
1F
0G
1\
0]
1S
0V
0H
1N
1e
1I
0`
1@
1?
1+
#655000
1"
19
1G
0\
0N
#660000
0"
0!
09
08
0F
0G
1\
1]
0S
1V
1N
#665000
1"
19
1G
0\
1H
0N
0e
0I
1`
0@
0?
0+
#670000
0"
1!
09
18
1F
0G
1\
0]
1S
0V
0H
1N
1e
1I
0`
1@
1?
1+
#675000
1"
19
1G
0\
0N
#680000
0"
0!
09
08
0F
0G
1\
1]
0S
1V
1N
#690000
1"
19
1G
0\
1H
0N
0e
0I
1`
0@
0?
0+
#700000
0"
1$
09
15
1J
0G
1\
0Y
0M
0O
0T
0X
0H
1N
1d
1e
1^
0N
0C
0A
0E
0<
0>
0:
0*
0(
0&
