Lab06/Registrador/simulation/qsim/Registrador.msim.vcd
$comment
	File created using the following command:
		vcd file Registrador.msim.vcd -direction
$end
$date
	Tue Apr  3 15:53:26 2018
$end
$version
	ModelSim Version 10.5b
$end
$timescale
	1ps
$end

$scope module zbuffer_vhd_vec_tst $end
$var wire 1 ! E $end
$var wire 1 " F [3] $end
$var wire 1 # F [2] $end
$var wire 1 $ F [1] $end
$var wire 1 % F [0] $end
$var wire 1 & X [3] $end
$var wire 1 ' X [2] $end
$var wire 1 ( X [1] $end
$var wire 1 ) X [0] $end

$scope module i1 $end
$var wire 1 * gnd $end
$var wire 1 + vcc $end
$var wire 1 , unknown $end
$var wire 1 - devoe $end
$var wire 1 . devclrn $end
$var wire 1 / devpor $end
$var wire 1 0 ww_devoe $end
$var wire 1 1 ww_devclrn $end
$var wire 1 2 ww_devpor $end
$var wire 1 3 ww_X [3] $end
$var wire 1 4 ww_X [2] $end
$var wire 1 5 ww_X [1] $end
$var wire 1 6 ww_X [0] $end
$var wire 1 7 ww_E $end
$var wire 1 8 ww_F [3] $end
$var wire 1 9 ww_F [2] $end
$var wire 1 : ww_F [1] $end
$var wire 1 ; ww_F [0] $end
$var wire 1 < \F[0]~output_o\ $end
$var wire 1 = \F[1]~output_o\ $end
$var wire 1 > \F[2]~output_o\ $end
$var wire 1 ? \F[3]~output_o\ $end
$var wire 1 @ \X[0]~input_o\ $end
$var wire 1 A \E~input_o\ $end
$var wire 1 B \X[1]~input_o\ $end
$var wire 1 C \X[2]~input_o\ $end
$var wire 1 D \X[3]~input_o\ $end
$upscope $end
$upscope $end
$enddefinitions $end
#0
$dumpvars
0!
0*
1+
x,
1-
1.
1/
10
11
12
07
z<
z=
z>
z?
0@
0A
0B
0C
0D
0&
0'
0(
0)
z"
z#
z$
z%
03
04
05
06
z8
z9
z:
z;
$end
#25000
1)
16
1@
#50000
0)
1(
06
15
1B
0@
#75000
1)
16
1@
#100000
0)
0(
1'
06
05
14
1C
0B
0@
#125000
1)
16
1@
#150000
0)
1(
06
15
1B
0@
#175000
1)
16
1@
#200000
0)
0(
0'
1&
06
05
04
13
1D
0C
0B
0@
#225000
1)
16
1@
#250000
0)
1(
06
15
1B
0@
#275000
1)
16
1@
#300000
0)
0(
1'
06
05
14
1C
0B
0@
#325000
1)
16
1@
#350000
0)
1(
06
15
1B
0@
#375000
1)
16
1@
#400000
0)
0(
0'
0&
1!
06
05
04
03
17
1A
0D
0C
0B
0@
0<
0=
0>
0?
0;
0:
09
08
0%
0$
0#
0"
#425000
1)
16
1@
1<
1;
1%
#450000
0)
1(
06
15
1B
0@
0<
1=
0;
1:
0%
1$
#475000
1)
16
1@
1<
1;
1%
#500000
0)
0(
1'
06
05
14
1C
0B
0@
0<
0=
1>
0;
0:
19
0%
0$
1#
#525000
1)
16
1@
1<
1;
1%
#550000
0)
1(
06
15
1B
0@
0<
1=
0;
1:
0%
1$
#575000
1)
16
1@
1<
1;
1%
#600000
0)
0(
0'
1&
06
05
04
13
1D
0C
0B
0@
0<
0=
0>
1?
0;
0:
09
18
0%
0$
0#
1"
#625000
1)
16
1@
1<
1;
1%
#650000
0)
1(
06
15
1B
0@
0<
1=
0;
1:
0%
1$
#675000
1)
16
1@
1<
1;
1%
#700000
0)
0(
1'
06
05
14
1C
0B
0@
0<
0=
1>
0;
0:
19
0%
0$
1#
#725000
1)
16
1@
1<
1;
1%
#750000
0)
1(
06
15
1B
0@
0<
1=
0;
1:
0%
1$
#775000
1)
16
1@
1<
1;
1%
