Lab04/Parte 1/simulation/qsim/adder.msim.vcd
$comment
	File created using the following command:
		vcd file adder.msim.vcd -direction
$end
$date
	Mon Mar 19 16:27:20 2018
$end
$version
	ModelSim Version 10.5b
$end
$timescale
	1ps
$end

$scope module ripple_carry_vhd_vec_tst $end
$var wire 1 ! cin $end
$var wire 1 " cout $end
$var wire 1 # overflow $end
$var wire 1 $ r [3] $end
$var wire 1 % r [2] $end
$var wire 1 & r [1] $end
$var wire 1 ' r [0] $end
$var wire 1 ( x [3] $end
$var wire 1 ) x [2] $end
$var wire 1 * x [1] $end
$var wire 1 + x [0] $end
$var wire 1 , y [3] $end
$var wire 1 - y [2] $end
$var wire 1 . y [1] $end
$var wire 1 / y [0] $end

$scope module i1 $end
$var wire 1 0 gnd $end
$var wire 1 1 vcc $end
$var wire 1 2 unknown $end
$var wire 1 3 devoe $end
$var wire 1 4 devclrn $end
$var wire 1 5 devpor $end
$var wire 1 6 ww_devoe $end
$var wire 1 7 ww_devclrn $end
$var wire 1 8 ww_devpor $end
$var wire 1 9 ww_x [3] $end
$var wire 1 : ww_x [2] $end
$var wire 1 ; ww_x [1] $end
$var wire 1 < ww_x [0] $end
$var wire 1 = ww_y [3] $end
$var wire 1 > ww_y [2] $end
$var wire 1 ? ww_y [1] $end
$var wire 1 @ ww_y [0] $end
$var wire 1 A ww_r [3] $end
$var wire 1 B ww_r [2] $end
$var wire 1 C ww_r [1] $end
$var wire 1 D ww_r [0] $end
$var wire 1 E ww_cin $end
$var wire 1 F ww_cout $end
$var wire 1 G ww_overflow $end
$var wire 1 H \~QUARTUS_CREATED_GND~I_combout\ $end
$var wire 1 I \cin~input_o\ $end
$var wire 1 J \x[0]~input_o\ $end
$var wire 1 K \y[0]~input_o\ $end
$var wire 1 L \G1:0:adder|r~combout\ $end
$var wire 1 M \x[1]~input_o\ $end
$var wire 1 N \y[1]~input_o\ $end
$var wire 1 O \G1:1:adder|r~combout\ $end
$var wire 1 P \x[2]~input_o\ $end
$var wire 1 Q \G1:1:adder|cout~0_combout\ $end
$var wire 1 R \y[2]~input_o\ $end
$var wire 1 S \G1:2:adder|r~combout\ $end
$var wire 1 T \y[3]~input_o\ $end
$var wire 1 U \x[3]~input_o\ $end
$var wire 1 V \G1:3:adder|r~combout\ $end
$var wire 1 W \G1:3:adder|cout~0_combout\ $end
$var wire 1 X \overflow~0_combout\ $end
$var wire 1 Y \G1:1:adder|ALT_INV_cout~0_combout\ $end
$var wire 1 Z \ALT_INV_y[3]~input_o\ $end
$var wire 1 [ \ALT_INV_x[3]~input_o\ $end
$var wire 1 \ \ALT_INV_y[2]~input_o\ $end
$var wire 1 ] \ALT_INV_x[2]~input_o\ $end
$var wire 1 ^ \ALT_INV_y[1]~input_o\ $end
$var wire 1 _ \ALT_INV_x[1]~input_o\ $end
$var wire 1 ` \ALT_INV_cin~input_o\ $end
$var wire 1 a \ALT_INV_y[0]~input_o\ $end
$var wire 1 b \ALT_INV_x[0]~input_o\ $end
$upscope $end
$upscope $end
$enddefinitions $end
#0
$dumpvars
0!
0"
0#
00
11
x2
13
14
15
16
17
18
0E
0F
0G
xH
0I
0J
0K
0L
0M
0N
0O
0P
0Q
0R
0S
0T
0U
0V
0W
0X
1Y
1Z
1[
1\
1]
1^
1_
1`
1a
1b
0(
0)
0*
0+
0,
0-
0.
0/
0$
0%
0&
0'
09
0:
0;
0<
0=
0>
0?
0@
0A
0B
0C
0D
$end
#3125
1.
1?
1N
0^
1O
1C
1&
#6250
0.
1-
0?
1>
1R
0N
1^
0\
1S
0O
0C
1B
0&
1%
#9375
1.
1?
1N
0^
1O
1C
1&
#12500
0.
0-
1,
0?
0>
1=
1T
0R
0N
1^
1\
0Z
0S
1V
0O
0C
1A
0B
0&
0%
1$
#15625
1.
1?
1N
0^
1O
1C
1&
#18750
0.
1-
0?
1>
1R
0N
1^
0\
1S
0O
0C
1B
0&
1%
#21875
1.
1?
1N
0^
1O
1C
1&
#25000
0.
0-
0,
1+
0?
0>
0=
1<
1J
0T
0R
0N
1^
1\
1Z
0b
1L
0S
0V
0O
0C
0A
0B
1D
1'
0&
0%
0$
#28125
1.
1?
1N
0^
1O
1C
1&
#31250
0.
1-
0?
1>
1R
0N
1^
0\
1S
0O
0C
1B
0&
1%
#34375
1.
1?
1N
0^
1O
1C
1&
#37500
0.
0-
1,
0?
0>
1=
1T
0R
0N
1^
1\
0Z
0S
1V
0O
0C
1A
0B
0&
0%
1$
#40625
1.
1?
1N
0^
1O
1C
1&
#43750
0.
1-
0?
1>
1R
0N
1^
0\
1S
0O
0C
1B
0&
1%
#46875
1.
1?
1N
0^
1O
1C
1&
#50000
0.
0-
0,
0+
1*
0?
0>
0=
0<
1;
1M
0J
0T
0R
0N
1^
1\
1Z
1b
0_
0L
0S
0V
0A
0B
0D
0'
0%
0$
#53125
1.
1?
1N
0^
0O
1Q
0Y
1S
0C
0&
1B
1%
#56250
0.
1-
0?
1>
1R
0N
1^
0\
0S
1V
1X
1O
0Q
1Y
1S
0V
0X
1C
1G
1A
0B
1&
0%
1$
1#
0G
0A
1B
0#
1%
0$
#59375
1.
1?
1N
0^
0O
1Q
0Y
0S
1V
1X
0C
0&
1G
1A
0B
1#
0%
1$
#62500
0.
0-
1,
0?
0>
1=
1T
0R
0N
1^
1\
0Z
1S
0X
1O
0Q
1Y
0S
1C
0G
1B
1&
1%
0#
0B
0%
#65625
1.
1?
1N
0^
0O
1Q
0Y
1S
0C
0&
1B
1%
#68750
0.
1-
0?
1>
1R
0N
1^
0\
0S
0V
1W
1O
0Q
1Y
1S
1V
0W
1C
1F
0A
0B
1&
0%
0$
1"
0F
1A
1B
0"
1%
1$
#71875
1.
1?
1N
0^
0O
1Q
0Y
0S
0V
1W
0C
0&
1F
0A
0B
1"
0%
0$
#75000
0.
0-
0,
1+
0?
0>
0=
1<
1J
0T
0R
0N
1^
1\
1Z
0b
1L
1S
0W
1O
0Q
1Y
0S
1C
0F
1B
1D
1'
1&
1%
0"
0B
0%
#78125
1.
1?
1N
0^
0O
1Q
0Y
1S
0C
0&
1B
1%
#81250
0.
1-
0?
1>
1R
0N
1^
0\
0S
1V
1X
1O
0Q
1Y
1S
0V
0X
1C
1G
1A
0B
1&
0%
1$
1#
0G
0A
1B
0#
1%
0$
#84375
1.
1?
1N
0^
0O
1Q
0Y
0S
1V
1X
0C
0&
1G
1A
0B
1#
0%
1$
#87500
0.
0-
1,
0?
0>
1=
1T
0R
0N
1^
1\
0Z
1S
0X
1O
0Q
1Y
0S
1C
0G
1B
1&
1%
0#
0B
0%
#90625
1.
1?
1N
0^
0O
1Q
0Y
1S
0C
0&
1B
1%
#93750
0.
1-
0?
1>
1R
0N
1^
0\
0S
0V
1W
1O
0Q
1Y
1S
1V
0W
1C
1F
0A
0B
1&
0%
0$
1"
0F
1A
1B
0"
1%
1$
#96875
1.
1?
1N
0^
0O
1Q
0Y
0S
0V
1W
0C
0&
1F
0A
0B
1"
0%
0$
#100000
0.
0-
0,
0+
0*
1)
0?
0>
0=
0<
0;
1:
1P
0M
0J
0T
0R
0N
1^
1\
1Z
1b
1_
0]
0L
1V
0W
1X
0Q
1Y
1S
0V
0X
1G
0F
1A
0D
1#
0"
0'
1$
0G
0A
1B
0#
1%
0$
#103125
1.
1?
1N
0^
1O
1C
1&
#106250
0.
1-
0?
1>
1R
0N
1^
0\
0S
1V
1X
0O
0C
1G
1A
0B
0&
0%
1$
1#
#109375
1.
1?
1N
0^
1O
1C
1&
#112500
0.
0-
1,
0?
0>
1=
1T
0R
0N
1^
1\
0Z
1S
0X
0O
0C
0G
1B
0&
1%
0#
#115625
1.
1?
1N
0^
1O
1C
1&
#118750
0.
1-
0?
1>
1R
0N
1^
0\
0S
0V
1W
0O
0C
1F
0A
0B
0&
0%
0$
1"
#121875
1.
1?
1N
0^
1O
1C
1&
#125000
0.
0-
0,
1+
0?
0>
0=
1<
1J
0T
0R
0N
1^
1\
1Z
0b
1L
1S
0W
0O
0C
0F
1B
1D
1'
0&
1%
0"
#128125
1.
1?
1N
0^
1O
1C
1&
#131250
0.
1-
0?
1>
1R
0N
1^
0\
0S
1V
1X
0O
0C
1G
1A
0B
0&
0%
1$
1#
#134375
1.
1?
1N
0^
1O
1C
1&
#137500
0.
0-
1,
0?
0>
1=
1T
0R
0N
1^
1\
0Z
1S
0X
0O
0C
0G
1B
0&
1%
0#
#140625
1.
1?
1N
0^
1O
1C
1&
#143750
0.
1-
0?
1>
1R
0N
1^
0\
0S
0V
1W
0O
0C
1F
0A
0B
0&
0%
0$
1"
#146875
1.
1?
1N
0^
1O
1C
1&
#150000
0.
0-
0,
0+
1*
0?
0>
0=
0<
1;
1M
0J
0T
0R
0N
1^
1\
1Z
1b
0_
0L
1S
0W
0F
1B
0D
0"
0'
1%
#153125
1.
1?
1N
0^
0O
1Q
0Y
0S
1V
1X
0C
0&
1G
1A
0B
1#
0%
1$
#156250
0.
1-
0?
1>
1R
0N
1^
0\
1S
1O
0Q
1Y
0S
1C
1B
1&
1%
0B
0%
#159375
1.
1?
1N
0^
0O
1Q
0Y
1S
0C
0&
1B
1%
#162500
0.
0-
1,
0?
0>
1=
1T
0R
0N
1^
1\
0Z
0S
0V
1W
0X
1O
0Q
1Y
1S
1V
0W
1C
0G
1F
0A
0B
1&
0%
0$
0#
1"
0F
1A
1B
0"
1%
1$
#165625
1.
1?
1N
0^
0O
1Q
0Y
0S
0V
1W
0C
0&
1F
0A
0B
1"
0%
0$
#168750
0.
1-
0?
1>
1R
0N
1^
0\
1S
1O
0Q
1Y
0S
1C
1B
1&
1%
0B
0%
#171875
1.
1?
1N
0^
0O
1Q
0Y
1S
0C
0&
1B
1%
#175000
0.
0-
0,
1+
0?
0>
0=
1<
1J
0T
0R
0N
1^
1\
1Z
0b
1L
0S
1V
0W
1X
1O
0Q
1Y
1S
0V
0X
1C
1G
0F
1A
0B
1D
1'
1&
0%
1$
1#
0"
0G
0A
1B
0#
1%
0$
#178125
1.
1?
1N
0^
0O
1Q
0Y
0S
1V
1X
0C
0&
1G
1A
0B
1#
0%
1$
#181250
0.
1-
0?
1>
1R
0N
1^
0\
1S
1O
0Q
1Y
0S
1C
1B
1&
1%
0B
0%
#184375
1.
1?
1N
0^
0O
1Q
0Y
1S
0C
0&
1B
1%
#187500
0.
0-
1,
0?
0>
1=
1T
0R
0N
1^
1\
0Z
0S
0V
1W
0X
1O
0Q
1Y
1S
1V
0W
1C
0G
1F
0A
0B
1&
0%
0$
0#
1"
0F
1A
1B
0"
1%
1$
#190625
1.
1?
1N
0^
0O
1Q
0Y
0S
0V
1W
0C
0&
1F
0A
0B
1"
0%
0$
#193750
0.
1-
0?
1>
1R
0N
1^
0\
1S
1O
0Q
1Y
0S
1C
1B
1&
1%
0B
0%
#196875
1.
1?
1N
0^
0O
1Q
0Y
1S
0C
0&
1B
1%
#200000
0.
0-
0,
0+
0*
0)
1(
0?
0>
0=
0<
0;
0:
19
1U
0P
0M
0J
0T
0R
0N
1^
1\
1Z
1b
1_
1]
0[
0L
1V
0W
0Q
1Y
0S
0F
1A
0D
0"
0'
1$
0B
0%
#203125
1.
1?
1N
0^
1O
1C
1&
#206250
0.
1-
0?
1>
1R
0N
1^
0\
1S
0O
0C
1B
0&
1%
#209375
1.
1?
1N
0^
1O
1C
1&
#212500
0.
0-
1,
0?
0>
1=
1T
0R
0N
1^
1\
0Z
0S
0V
1W
1X
0O
0C
1G
1F
0A
0B
0&
0%
0$
1#
1"
#215625
1.
1?
1N
0^
1O
1C
1&
#218750
0.
1-
0?
1>
1R
0N
1^
0\
1S
0O
0C
1B
0&
1%
#221875
1.
1?
1N
0^
1O
1C
1&
#225000
0.
0-
0,
1+
0?
0>
0=
1<
1J
0T
0R
0N
1^
1\
1Z
0b
1L
0S
1V
0W
0X
0O
0C
0G
0F
1A
0B
1D
1'
0&
0%
1$
0#
0"
#228125
1.
1?
1N
0^
1O
1C
1&
#231250
0.
1-
0?
1>
1R
0N
1^
0\
1S
0O
0C
1B
0&
1%
#234375
1.
1?
1N
0^
1O
1C
1&
#237500
0.
0-
1,
0?
0>
1=
1T
0R
0N
1^
1\
0Z
0S
0V
1W
1X
0O
0C
1G
1F
0A
0B
0&
0%
0$
1#
1"
#240625
1.
1?
1N
0^
1O
1C
1&
#243750
0.
1-
0?
1>
1R
0N
1^
0\
1S
0O
0C
1B
0&
1%
#246875
1.
1?
1N
0^
1O
1C
1&
#250000
0.
0-
0,
0+
1*
0?
0>
0=
0<
1;
1M
0J
0T
0R
0N
1^
1\
1Z
1b
0_
0L
0S
1V
0W
0X
0G
0F
1A
0B
0D
0#
0"
0'
0%
1$
#253125
1.
1?
1N
0^
0O
1Q
0Y
1S
0C
0&
1B
1%
#256250
0.
1-
0?
1>
1R
0N
1^
0\
0S
0V
1W
1O
0Q
1Y
1S
1V
0W
1C
1F
0A
0B
1&
0%
0$
1"
0F
1A
1B
0"
1%
1$
#259375
1.
1?
1N
0^
0O
1Q
0Y
0S
0V
1W
0C
0&
1F
0A
0B
1"
0%
0$
#262500
0.
0-
1,
0?
0>
1=
1T
0R
0N
1^
1\
0Z
1S
1X
1O
0Q
1Y
0S
1C
1G
1B
1&
1%
1#
0B
0%
#265625
1.
1?
1N
0^
0O
1Q
0Y
1S
0C
0&
1B
1%
#268750
0.
1-
0?
1>
1R
0N
1^
0\
0S
1V
0X
1O
0Q
1Y
1S
0V
1X
1C
0G
1A
0B
1&
0%
1$
0#
1G
0A
1B
1#
1%
0$
#271875
1.
1?
1N
0^
0O
1Q
0Y
0S
1V
0X
0C
0&
0G
1A
0B
0#
0%
1$
#275000
0.
0-
0,
1+
0?
0>
0=
1<
1J
0T
0R
0N
1^
1\
1Z
0b
1L
1S
0W
1O
0Q
1Y
0S
1C
0F
1B
1D
1'
1&
1%
0"
0B
0%
#278125
1.
1?
1N
0^
0O
1Q
0Y
1S
0C
0&
1B
1%
#281250
0.
1-
0?
1>
1R
0N
1^
0\
0S
0V
1W
1O
0Q
1Y
1S
1V
0W
1C
1F
0A
0B
1&
0%
0$
1"
0F
1A
1B
0"
1%
1$
#284375
1.
1?
1N
0^
0O
1Q
0Y
0S
0V
1W
0C
0&
1F
0A
0B
1"
0%
0$
#287500
0.
0-
1,
0?
0>
1=
1T
0R
0N
1^
1\
0Z
1S
1X
1O
0Q
1Y
0S
1C
1G
1B
1&
1%
1#
0B
0%
#290625
1.
1?
1N
0^
0O
1Q
0Y
1S
0C
0&
1B
1%
#293750
0.
1-
0?
1>
1R
0N
1^
0\
0S
1V
0X
1O
0Q
1Y
1S
0V
1X
1C
0G
1A
0B
1&
0%
1$
0#
1G
0A
1B
1#
1%
0$
#296875
1.
1?
1N
0^
0O
1Q
0Y
0S
1V
0X
0C
0&
0G
1A
0B
0#
0%
1$
#300000
0.
0-
0,
0+
0*
1)
0?
0>
0=
0<
0;
1:
1P
0M
0J
0T
0R
0N
1^
1\
1Z
1b
1_
0]
0L
0V
0Q
1Y
1S
1V
0W
0A
0D
0'
0$
0F
1A
1B
0"
1%
1$
#303125
1.
1?
1N
0^
1O
1C
1&
#306250
0.
1-
0?
1>
1R
0N
1^
0\
0S
0V
1W
0O
0C
1F
0A
0B
0&
0%
0$
1"
#309375
1.
1?
1N
0^
1O
1C
1&
#312500
0.
0-
1,
0?
0>
1=
1T
0R
0N
1^
1\
0Z
1S
1X
0O
0C
1G
1B
0&
1%
1#
#315625
1.
1?
1N
0^
1O
1C
1&
#318750
0.
1-
0?
1>
1R
0N
1^
0\
0S
1V
0X
0O
0C
0G
1A
0B
0&
0%
1$
0#
#321875
1.
1?
1N
0^
1O
1C
1&
#325000
0.
0-
0,
1+
0?
0>
0=
1<
1J
0T
0R
0N
1^
1\
1Z
0b
1L
1S
0W
0O
0C
0F
1B
1D
1'
0&
1%
0"
#328125
1.
1?
1N
0^
1O
1C
1&
#331250
0.
1-
0?
1>
1R
0N
1^
0\
0S
0V
1W
0O
0C
1F
0A
0B
0&
0%
0$
1"
#334375
1.
1?
1N
0^
1O
1C
1&
#337500
0.
0-
1,
0?
0>
1=
1T
0R
0N
1^
1\
0Z
1S
1X
0O
0C
1G
1B
0&
1%
1#
#340625
1.
1?
1N
0^
1O
1C
1&
#343750
0.
1-
0?
1>
1R
0N
1^
0\
0S
1V
0X
0O
0C
0G
1A
0B
0&
0%
1$
0#
#346875
1.
1?
1N
0^
1O
1C
1&
#350000
0.
0-
0,
0+
1*
0?
0>
0=
0<
1;
1M
0J
0T
0R
0N
1^
1\
1Z
1b
0_
0L
1S
0W
0F
1B
0D
0"
0'
1%
#353125
1.
1?
1N
0^
0O
1Q
0Y
0S
0V
1W
0C
0&
1F
0A
0B
1"
0%
0$
#356250
0.
1-
0?
1>
1R
0N
1^
0\
1S
1O
0Q
1Y
0S
1C
1B
1&
1%
0B
0%
#359375
1.
1?
1N
0^
0O
1Q
0Y
1S
0C
0&
1B
1%
#362500
0.
0-
1,
0?
0>
1=
1T
0R
0N
1^
1\
0Z
0S
1V
1O
0Q
1Y
1S
0V
1X
1C
1A
0B
1&
0%
1$
1G
0A
1B
1#
1%
0$
#365625
1.
1?
1N
0^
0O
1Q
0Y
0S
1V
0X
0C
0&
0G
1A
0B
0#
0%
1$
#368750
0.
1-
0?
1>
1R
0N
1^
0\
1S
1O
0Q
1Y
0S
1C
1B
1&
1%
0B
0%
#371875
1.
1?
1N
0^
0O
1Q
0Y
1S
0C
0&
1B
1%
#375000
0.
0-
0,
1+
0?
0>
0=
1<
1J
0T
0R
0N
1^
1\
1Z
0b
1L
0S
0V
1O
0Q
1Y
1S
1V
0W
1C
0A
0B
1D
1'
1&
0%
0$
0F
1A
1B
0"
1%
1$
#378125
1.
1?
1N
0^
0O
1Q
0Y
0S
0V
1W
0C
0&
1F
0A
0B
1"
0%
0$
#381250
0.
1-
0?
1>
1R
0N
1^
0\
1S
1O
0Q
1Y
0S
1C
1B
1&
1%
0B
0%
#384375
1.
1?
1N
0^
0O
1Q
0Y
1S
0C
0&
1B
1%
#387500
0.
0-
1,
0?
0>
1=
1T
0R
0N
1^
1\
0Z
0S
1V
1O
0Q
1Y
1S
0V
1X
1C
1A
0B
1&
0%
1$
1G
0A
1B
1#
1%
0$
#390625
1.
1?
1N
0^
0O
1Q
0Y
0S
1V
0X
0C
0&
0G
1A
0B
0#
0%
1$
#393750
0.
1-
0?
1>
1R
0N
1^
0\
1S
1O
0Q
1Y
0S
1C
1B
1&
1%
0B
0%
#396875
1.
1?
1N
0^
0O
1Q
0Y
1S
0C
0&
1B
1%
#400000
0.
0-
0,
0+
0*
0)
0(
1!
0?
0>
0=
0<
0;
0:
09
1E
1I
0U
0P
0M
0J
0T
0R
0N
1^
1\
1Z
1b
1_
1]
1[
0`
0V
0W
0Q
1Y
0S
0F
0A
0"
0$
0B
0%
#403125
1.
1?
1N
0^
1O
1C
1&
#406250
0.
1-
0?
1>
1R
0N
1^
0\
1S
0O
0C
1B
0&
1%
#409375
1.
1?
1N
0^
1O
1C
1&
#412500
0.
0-
1,
0?
0>
1=
1T
0R
0N
1^
1\
0Z
0S
1V
0O
0C
1A
0B
0&
0%
1$
#415625
1.
1?
1N
0^
1O
1C
1&
#418750
0.
1-
0?
1>
1R
0N
1^
0\
1S
0O
0C
1B
0&
1%
#421875
1.
1?
1N
0^
1O
1C
1&
#425000
0.
0-
0,
1+
0?
0>
0=
1<
1J
0T
0R
0N
1^
1\
1Z
0b
0L
0S
0V
0A
0B
0D
0'
0%
0$
#428125
1.
1?
1N
0^
0O
1Q
0Y
1S
0C
0&
1B
1%
#431250
0.
1-
0?
1>
1R
0N
1^
0\
0S
1V
1X
1O
0Q
1Y
1S
0V
0X
1C
1G
1A
0B
1&
0%
1$
1#
0G
0A
1B
0#
1%
0$
#434375
1.
1?
1N
0^
0O
1Q
0Y
0S
1V
1X
0C
0&
1G
1A
0B
1#
0%
1$
#437500
0.
0-
1,
0?
0>
1=
1T
0R
0N
1^
1\
0Z
1S
0X
1O
0Q
1Y
0S
1C
0G
1B
1&
1%
0#
0B
0%
#440625
1.
1?
1N
0^
0O
1Q
0Y
1S
0C
0&
1B
1%
#443750
0.
1-
0?
1>
1R
0N
1^
0\
0S
0V
1W
1O
0Q
1Y
1S
1V
0W
1C
1F
0A
0B
1&
0%
0$
1"
0F
1A
1B
0"
1%
1$
#446875
1.
1?
1N
0^
0O
1Q
0Y
0S
0V
1W
0C
0&
1F
0A
0B
1"
0%
0$
#450000
0.
0-
0,
0+
1*
0?
0>
0=
0<
1;
1M
0J
0T
0R
0N
1^
1\
1Z
1b
0_
1L
1S
0W
1O
0Q
1Y
0S
1C
0F
1B
1D
1'
1&
1%
0"
0B
0%
#453125
1.
1?
1N
0^
0O
1Q
0Y
1S
0C
0&
1B
1%
#456250
0.
1-
0?
1>
1R
0N
1^
0\
0S
1V
1X
1O
0Q
1Y
1S
0V
0X
1C
1G
1A
0B
1&
0%
1$
1#
0G
0A
1B
0#
1%
0$
#459375
1.
1?
1N
0^
0O
1Q
0Y
0S
1V
1X
0C
0&
1G
1A
0B
1#
0%
1$
#462500
0.
0-
1,
0?
0>
1=
1T
0R
0N
1^
1\
0Z
1S
0X
1O
0Q
1Y
0S
1C
0G
1B
1&
1%
0#
0B
0%
#465625
1.
1?
1N
0^
0O
1Q
0Y
1S
0C
0&
1B
1%
#468750
0.
1-
0?
1>
1R
0N
1^
0\
0S
0V
1W
1O
0Q
1Y
1S
1V
0W
1C
1F
0A
0B
1&
0%
0$
1"
0F
1A
1B
0"
1%
1$
#471875
1.
1?
1N
0^
0O
1Q
0Y
0S
0V
1W
0C
0&
1F
0A
0B
1"
0%
0$
#475000
0.
0-
0,
1+
0?
0>
0=
1<
1J
0T
0R
0N
1^
1\
1Z
0b
0L
1S
0W
0F
1B
0D
0"
0'
1%
#478125
1.
1?
1N
0^
1O
1C
1&
#481250
0.
1-
0?
1>
1R
0N
1^
0\
0S
1V
1X
0O
0C
1G
1A
0B
0&
0%
1$
1#
#484375
1.
1?
1N
0^
1O
1C
1&
#487500
0.
0-
1,
0?
0>
1=
1T
0R
0N
1^
1\
0Z
1S
0X
0O
0C
0G
1B
0&
1%
0#
#490625
1.
1?
1N
0^
1O
1C
1&
#493750
0.
1-
0?
1>
1R
0N
1^
0\
0S
0V
1W
0O
0C
1F
0A
0B
0&
0%
0$
1"
#496875
1.
1?
1N
0^
1O
1C
1&
#500000
0.
0-
0,
0+
0*
1)
0?
0>
0=
0<
0;
1:
1P
0M
0J
0T
0R
0N
1^
1\
1Z
1b
1_
0]
1L
1V
0W
1X
0O
0Q
1Y
1S
0V
0X
0C
1G
0F
1A
1D
1'
0&
1$
1#
0"
0G
0A
1B
0#
1%
0$
#503125
1.
1?
1N
0^
1O
1C
1&
#506250
0.
1-
0?
1>
1R
0N
1^
0\
0S
1V
1X
0O
0C
1G
1A
0B
0&
0%
1$
1#
#509375
1.
1?
1N
0^
1O
1C
1&
#512500
0.
0-
1,
0?
0>
1=
1T
0R
0N
1^
1\
0Z
1S
0X
0O
0C
0G
1B
0&
1%
0#
#515625
1.
1?
1N
0^
1O
1C
1&
#518750
0.
1-
0?
1>
1R
0N
1^
0\
0S
0V
1W
0O
0C
1F
0A
0B
0&
0%
0$
1"
#521875
1.
1?
1N
0^
1O
1C
1&
#525000
0.
0-
0,
1+
0?
0>
0=
1<
1J
0T
0R
0N
1^
1\
1Z
0b
0L
1S
0W
0F
1B
0D
0"
0'
1%
#528125
1.
1?
1N
0^
0O
1Q
0Y
0S
1V
1X
0C
0&
1G
1A
0B
1#
0%
1$
#531250
0.
1-
0?
1>
1R
0N
1^
0\
1S
1O
0Q
1Y
0S
1C
1B
1&
1%
0B
0%
#534375
1.
1?
1N
0^
0O
1Q
0Y
1S
0C
0&
1B
1%
#537500
0.
0-
1,
0?
0>
1=
1T
0R
0N
1^
1\
0Z
0S
0V
1W
0X
1O
0Q
1Y
1S
1V
0W
1C
0G
1F
0A
0B
1&
0%
0$
0#
1"
0F
1A
1B
0"
1%
1$
#540625
1.
1?
1N
0^
0O
1Q
0Y
0S
0V
1W
0C
0&
1F
0A
0B
1"
0%
0$
#543750
0.
1-
0?
1>
1R
0N
1^
0\
1S
1O
0Q
1Y
0S
1C
1B
1&
1%
0B
0%
#546875
1.
1?
1N
0^
0O
1Q
0Y
1S
0C
0&
1B
1%
#550000
0.
0-
0,
0+
1*
0?
0>
0=
0<
1;
1M
0J
0T
0R
0N
1^
1\
1Z
1b
0_
1L
0S
1V
0W
1X
1O
0Q
1Y
1S
0V
0X
1C
1G
0F
1A
0B
1D
1'
1&
0%
1$
1#
0"
0G
0A
1B
0#
1%
0$
#553125
1.
1?
1N
0^
0O
1Q
0Y
0S
1V
1X
0C
0&
1G
1A
0B
1#
0%
1$
#556250
0.
1-
0?
1>
1R
0N
1^
0\
1S
1O
0Q
1Y
0S
1C
1B
1&
1%
0B
0%
#559375
1.
1?
1N
0^
0O
1Q
0Y
1S
0C
0&
1B
1%
#562500
0.
0-
1,
0?
0>
1=
1T
0R
0N
1^
1\
0Z
0S
0V
1W
0X
1O
0Q
1Y
1S
1V
0W
1C
0G
1F
0A
0B
1&
0%
0$
0#
1"
0F
1A
1B
0"
1%
1$
#565625
1.
1?
1N
0^
0O
1Q
0Y
0S
0V
1W
0C
0&
1F
0A
0B
1"
0%
0$
#568750
0.
1-
0?
1>
1R
0N
1^
0\
1S
1O
0Q
1Y
0S
1C
1B
1&
1%
0B
0%
#571875
1.
1?
1N
0^
0O
1Q
0Y
1S
0C
0&
1B
1%
#575000
0.
0-
0,
1+
0?
0>
0=
1<
1J
0T
0R
0N
1^
1\
1Z
0b
0L
0S
1V
0W
1X
1G
0F
1A
0B
0D
1#
0"
0'
0%
1$
#578125
1.
1?
1N
0^
1O
1C
1&
#581250
0.
1-
0?
1>
1R
0N
1^
0\
1S
0O
0C
1B
0&
1%
#584375
1.
1?
1N
0^
1O
1C
1&
#587500
0.
0-
1,
0?
0>
1=
1T
0R
0N
1^
1\
0Z
0S
0V
1W
0X
0O
0C
0G
1F
0A
0B
0&
0%
0$
0#
1"
#590625
1.
1?
1N
0^
1O
1C
1&
#593750
0.
1-
0?
1>
1R
0N
1^
0\
1S
0O
0C
1B
0&
1%
#596875
1.
1?
1N
0^
1O
1C
1&
#600000
0.
0-
0,
0+
0*
0)
1(
0?
0>
0=
0<
0;
0:
19
1U
0P
0M
0J
0T
0R
0N
1^
1\
1Z
1b
1_
1]
0[
1L
1V
0W
0O
0Q
1Y
0S
0C
0F
1A
1D
1'
0&
1$
0"
0B
0%
#603125
1.
1?
1N
0^
1O
1C
1&
#606250
0.
1-
0?
1>
1R
0N
1^
0\
1S
0O
0C
1B
0&
1%
#609375
1.
1?
1N
0^
1O
1C
1&
#612500
0.
0-
1,
0?
0>
1=
1T
0R
0N
1^
1\
0Z
0S
0V
1W
1X
0O
0C
1G
1F
0A
0B
0&
0%
0$
1#
1"
#615625
1.
1?
1N
0^
1O
1C
1&
#618750
0.
1-
0?
1>
1R
0N
1^
0\
1S
0O
0C
1B
0&
1%
#621875
1.
1?
1N
0^
1O
1C
1&
#625000
0.
0-
0,
1+
0?
0>
0=
1<
1J
0T
0R
0N
1^
1\
1Z
0b
0L
0S
1V
0W
0X
0G
0F
1A
0B
0D
0#
0"
0'
0%
1$
#628125
1.
1?
1N
0^
0O
1Q
0Y
1S
0C
0&
1B
1%
#631250
0.
1-
0?
1>
1R
0N
1^
0\
0S
0V
1W
1O
0Q
1Y
1S
1V
0W
1C
1F
0A
0B
1&
0%
0$
1"
0F
1A
1B
0"
1%
1$
#634375
1.
1?
1N
0^
0O
1Q
0Y
0S
0V
1W
0C
0&
1F
0A
0B
1"
0%
0$
#637500
0.
0-
1,
0?
0>
1=
1T
0R
0N
1^
1\
0Z
1S
1X
1O
0Q
1Y
0S
1C
1G
1B
1&
1%
1#
0B
0%
#640625
1.
1?
1N
0^
0O
1Q
0Y
1S
0C
0&
1B
1%
#643750
0.
1-
0?
1>
1R
0N
1^
0\
0S
1V
0X
1O
0Q
1Y
1S
0V
1X
1C
0G
1A
0B
1&
0%
1$
0#
1G
0A
1B
1#
1%
0$
#646875
1.
1?
1N
0^
0O
1Q
0Y
0S
1V
0X
0C
0&
0G
1A
0B
0#
0%
1$
#650000
0.
0-
0,
0+
1*
0?
0>
0=
0<
1;
1M
0J
0T
0R
0N
1^
1\
1Z
1b
0_
1L
1S
0W
1O
0Q
1Y
0S
1C
0F
1B
1D
1'
1&
1%
0"
0B
0%
#653125
1.
1?
1N
0^
0O
1Q
0Y
1S
0C
0&
1B
1%
#656250
0.
1-
0?
1>
1R
0N
1^
0\
0S
0V
1W
1O
0Q
1Y
1S
1V
0W
1C
1F
0A
0B
1&
0%
0$
1"
0F
1A
1B
0"
1%
1$
#659375
1.
1?
1N
0^
0O
1Q
0Y
0S
0V
1W
0C
0&
1F
0A
0B
1"
0%
0$
#662500
0.
0-
1,
0?
0>
1=
1T
0R
0N
1^
1\
0Z
1S
1X
1O
0Q
1Y
0S
1C
1G
1B
1&
1%
1#
0B
0%
#665625
1.
1?
1N
0^
0O
1Q
0Y
1S
0C
0&
1B
1%
#668750
0.
1-
0?
1>
1R
0N
1^
0\
0S
1V
0X
1O
0Q
1Y
1S
0V
1X
1C
0G
1A
0B
1&
0%
1$
0#
1G
0A
1B
1#
1%
0$
#671875
1.
1?
1N
0^
0O
1Q
0Y
0S
1V
0X
0C
0&
0G
1A
0B
0#
0%
1$
#675000
0.
0-
0,
1+
0?
0>
0=
1<
1J
0T
0R
0N
1^
1\
1Z
0b
0L
1S
0W
0F
1B
0D
0"
0'
1%
#678125
1.
1?
1N
0^
1O
1C
1&
