Lab02/1/simulation/qsim/Lab01.msim.vcd
$comment
	File created using the following command:
		vcd file Lab01.msim.vcd -direction
$end
$date
	Mon Mar 12 16:28:08 2018
$end
$version
	ModelSim Version 10.5b
$end
$timescale
	1ps
$end

$scope module lab01_vhd_vec_tst $end
$var wire 1 ! pin_name6 $end
$var wire 1 " Xa $end
$var wire 1 # Xb $end
$var wire 1 $ Xc $end
$var wire 1 % Xd $end
$var wire 1 & Xe $end

$scope module i1 $end
$var wire 1 ' gnd $end
$var wire 1 ( vcc $end
$var wire 1 ) unknown $end
$var wire 1 * devoe $end
$var wire 1 + devclrn $end
$var wire 1 , devpor $end
$var wire 1 - ww_devoe $end
$var wire 1 . ww_devclrn $end
$var wire 1 / ww_devpor $end
$var wire 1 0 ww_pin_name6 $end
$var wire 1 1 ww_Xe $end
$var wire 1 2 ww_Xc $end
$var wire 1 3 ww_Xd $end
$var wire 1 4 ww_Xa $end
$var wire 1 5 ww_Xb $end
$var wire 1 6 \~QUARTUS_CREATED_GND~I_combout\ $end
$var wire 1 7 \Xa~input_o\ $end
$var wire 1 8 \Xc~input_o\ $end
$var wire 1 9 \Xd~input_o\ $end
$var wire 1 : \Xb~input_o\ $end
$var wire 1 ; \Xe~input_o\ $end
$var wire 1 < \inst5~0_combout\ $end
$var wire 1 = \ALT_INV_Xe~input_o\ $end
$var wire 1 > \ALT_INV_Xa~input_o\ $end
$var wire 1 ? \ALT_INV_Xc~input_o\ $end
$var wire 1 @ \ALT_INV_Xb~input_o\ $end
$var wire 1 A \ALT_INV_Xd~input_o\ $end
$upscope $end
$upscope $end
$enddefinitions $end
#0
$dumpvars
1!
0"
0#
0$
0%
0&
0'
1(
x)
1*
1+
1,
1-
1.
1/
10
01
02
03
04
05
x6
07
08
09
0:
0;
1<
1=
1>
1?
1@
1A
$end
#20000
1"
14
17
0>
0<
00
0!
#50000
0"
1#
04
15
1:
07
1>
0@
1<
10
1!
#80000
1"
14
17
0>
0<
00
0!
#100000
0"
0#
1$
04
05
12
18
0:
07
1>
1@
0?
#130000
1"
14
17
0>
1<
10
1!
#150000
0"
1#
04
15
1:
07
1>
0@
0<
00
0!
#180000
1"
14
17
0>
#200000
0"
0#
0$
1%
04
05
02
13
19
08
0:
07
1>
1@
1?
0A
1<
10
1!
#230000
1"
14
17
0>
0<
00
0!
#250000
0"
1#
04
15
1:
07
1>
0@
#280000
1"
14
17
0>
#300000
0"
0#
1$
04
05
12
18
0:
07
1>
1@
0?
#330000
1"
14
17
0>
1<
10
1!
#350000
0"
1#
04
15
1:
07
1>
0@
0<
00
0!
#380000
1"
14
17
0>
1<
10
1!
#400000
0"
0#
0$
0%
1&
04
05
02
03
11
1;
09
08
0:
07
1>
1@
1?
1A
0=
0<
00
0!
#430000
1"
14
17
0>
#450000
0"
1#
04
15
1:
07
1>
0@
1<
10
1!
#480000
1"
14
17
0>
0<
00
0!
#500000
0"
0#
1$
04
05
12
18
0:
07
1>
1@
0?
#530000
1"
14
17
0>
1<
10
1!
#550000
0"
1#
04
15
1:
07
1>
0@
0<
00
0!
#580000
1"
14
17
0>
#600000
0"
0#
0$
1%
04
05
02
13
19
08
0:
07
1>
1@
1?
0A
1<
10
1!
#630000
1"
14
17
0>
0<
00
0!
#650000
0"
1#
04
15
1:
07
1>
0@
#680000
1"
14
17
0>
#700000
0"
0#
1$
04
05
12
18
0:
07
1>
1@
0?
#730000
1"
14
17
0>
1<
10
1!
#750000
0"
1#
04
15
1:
07
1>
0@
0<
00
0!
#780000
1"
14
17
0>
1<
10
1!
