Lab02/1/simulation/qsim/Lab01.msim.vcd
$comment
	File created using the following command:
		vcd file Lab01.msim.vcd -direction
$end
$date
	Mon Mar  5 16:41:47 2018
$end
$version
	ModelSim Version 10.5b
$end
$timescale
	1ps
$end

$scope module Lab01_vlg_vec_tst $end
$var reg 1 ! Xa $end
$var reg 1 " Xb $end
$var reg 1 # Xc $end
$var reg 1 $ Xd $end
$var reg 1 % Xe $end
$var wire 1 & pin_name6 $end

$scope module i1 $end
$var wire 1 ' gnd $end
$var wire 1 ( vcc $end
$var wire 1 ) unknown $end
$var tri1 1 * devclrn $end
$var tri1 1 + devpor $end
$var tri1 1 , devoe $end
$var wire 1 - ~QUARTUS_CREATED_GND~I_combout $end
$var wire 1 . Xa~input_o $end
$var wire 1 / Xc~input_o $end
$var wire 1 0 Xe~input_o $end
$var wire 1 1 Xd~input_o $end
$var wire 1 2 Xb~input_o $end
$var wire 1 3 inst5~0_combout $end
$upscope $end
$upscope $end
$enddefinitions $end
#0
$dumpvars
0!
0"
0#
0$
0%
1&
0'
1(
x)
1*
1+
1,
0-
0.
0/
00
01
02
13
$end
#20000
1%
10
03
0&
#50000
1$
0%
11
00
13
1&
#80000
1%
10
03
0&
#100000
1#
0$
0%
1/
01
00
#130000
1%
10
13
1&
#150000
1$
0%
11
00
03
0&
#180000
1%
10
#200000
1"
0#
0$
0%
12
0/
01
00
13
1&
#230000
1%
10
03
0&
#250000
1$
0%
11
00
#280000
1%
10
#300000
1#
0$
0%
1/
01
00
#330000
1%
10
13
1&
#350000
1$
0%
11
00
03
0&
#380000
1%
10
13
1&
#400000
1!
0"
0#
0$
0%
1.
02
0/
01
00
03
0&
#430000
1%
10
#450000
1$
0%
11
00
13
1&
#480000
1%
10
03
0&
#500000
1#
0$
0%
1/
01
00
#530000
1%
10
13
1&
#550000
1$
0%
11
00
03
0&
#580000
1%
10
#600000
1"
0#
0$
0%
12
0/
01
00
13
1&
#630000
1%
10
03
0&
#650000
1$
0%
11
00
#680000
1%
10
#700000
1#
0$
0%
1/
01
00
#730000
1%
10
13
1&
#750000
1$
0%
11
00
03
0&
#780000
1%
10
13
1&
