Lab04/Parte 2/simulation/qsim/alu.msim.vcd
$comment
	File created using the following command:
		vcd file alu.msim.vcd -direction
$end
$date
	Wed Mar 21 17:28:13 2018
$end
$version
	ModelSim Version 10.5b
$end
$timescale
	1ps
$end

$scope module alu_vhd_vec_tst $end
$var wire 1 ! a [3] $end
$var wire 1 " a [2] $end
$var wire 1 # a [1] $end
$var wire 1 $ a [0] $end
$var wire 1 % b [3] $end
$var wire 1 & b [2] $end
$var wire 1 ' b [1] $end
$var wire 1 ( b [0] $end
$var wire 1 ) C $end
$var wire 1 * F [3] $end
$var wire 1 + F [2] $end
$var wire 1 , F [1] $end
$var wire 1 - F [0] $end
$var wire 1 . N $end
$var wire 1 / s0 $end
$var wire 1 0 s1 $end
$var wire 1 1 V $end
$var wire 1 2 Z $end

$scope module i1 $end
$var wire 1 3 gnd $end
$var wire 1 4 vcc $end
$var wire 1 5 unknown $end
$var wire 1 6 devoe $end
$var wire 1 7 devclrn $end
$var wire 1 8 devpor $end
$var wire 1 9 ww_devoe $end
$var wire 1 : ww_devclrn $end
$var wire 1 ; ww_devpor $end
$var wire 1 < ww_a [3] $end
$var wire 1 = ww_a [2] $end
$var wire 1 > ww_a [1] $end
$var wire 1 ? ww_a [0] $end
$var wire 1 @ ww_b [3] $end
$var wire 1 A ww_b [2] $end
$var wire 1 B ww_b [1] $end
$var wire 1 C ww_b [0] $end
$var wire 1 D ww_F [3] $end
$var wire 1 E ww_F [2] $end
$var wire 1 F ww_F [1] $end
$var wire 1 G ww_F [0] $end
$var wire 1 H ww_s0 $end
$var wire 1 I ww_s1 $end
$var wire 1 J ww_Z $end
$var wire 1 K ww_C $end
$var wire 1 L ww_V $end
$var wire 1 M ww_N $end
$var wire 1 N \~QUARTUS_CREATED_GND~I_combout\ $end
$var wire 1 O \a[0]~input_o\ $end
$var wire 1 P \s0~input_o\ $end
$var wire 1 Q \s1~input_o\ $end
$var wire 1 R \b[0]~input_o\ $end
$var wire 1 S \Mux3~0_combout\ $end
$var wire 1 T \a[1]~input_o\ $end
$var wire 1 U \b[1]~input_o\ $end
$var wire 1 V \Mux2~0_combout\ $end
$var wire 1 W \add|G1:1:adder|cout~0_combout\ $end
$var wire 1 X \sub|G1:1:adder|cout~0_combout\ $end
$var wire 1 Y \b[2]~input_o\ $end
$var wire 1 Z \a[2]~input_o\ $end
$var wire 1 [ \Mux1~0_combout\ $end
$var wire 1 \ \a[3]~input_o\ $end
$var wire 1 ] \add|G1:2:adder|cout~0_combout\ $end
$var wire 1 ^ \b[3]~input_o\ $end
$var wire 1 _ \sub|G1:2:adder|cout~0_combout\ $end
$var wire 1 ` \Mux0~0_combout\ $end
$var wire 1 a \Equal0~0_combout\ $end
$var wire 1 b \Mux4~0_combout\ $end
$var wire 1 c \Mux5~0_combout\ $end
$var wire 1 d \Mux8~0_combout\ $end
$var wire 1 e \ALT_INV_a[3]~input_o\ $end
$var wire 1 f \ALT_INV_b[3]~input_o\ $end
$var wire 1 g \ALT_INV_a[2]~input_o\ $end
$var wire 1 h \ALT_INV_b[2]~input_o\ $end
$var wire 1 i \ALT_INV_a[1]~input_o\ $end
$var wire 1 j \ALT_INV_b[1]~input_o\ $end
$var wire 1 k \ALT_INV_s0~input_o\ $end
$var wire 1 l \ALT_INV_b[0]~input_o\ $end
$var wire 1 m \ALT_INV_a[0]~input_o\ $end
$var wire 1 n \ALT_INV_s1~input_o\ $end
$var wire 1 o \ALT_INV_Mux0~0_combout\ $end
$var wire 1 p \add|G1:2:adder|ALT_INV_cout~0_combout\ $end
$var wire 1 q \sub|G1:2:adder|ALT_INV_cout~0_combout\ $end
$var wire 1 r \ALT_INV_Mux1~0_combout\ $end
$var wire 1 s \add|G1:1:adder|ALT_INV_cout~0_combout\ $end
$var wire 1 t \sub|G1:1:adder|ALT_INV_cout~0_combout\ $end
$var wire 1 u \ALT_INV_Mux2~0_combout\ $end
$var wire 1 v \ALT_INV_Mux3~0_combout\ $end
$upscope $end
$upscope $end
$enddefinitions $end
#0
$dumpvars
0)
1.
0/
00
01
02
03
14
x5
16
17
18
19
1:
1;
0H
0I
0J
0K
0L
1M
xN
0O
0P
0Q
1R
1S
1T
0U
1V
0W
0X
1Y
0Z
1[
1\
0]
0^
1_
1`
0a
0b
0c
1d
0e
1f
1g
0h
0i
1j
1k
0l
1m
1n
0o
1p
0q
0r
1s
1t
0u
0v
1!
0"
1#
0$
0%
1&
0'
1(
1*
1+
1,
1-
1<
0=
1>
0?
0@
1A
0B
1C
1D
1E
1F
1G
$end
#40000
0!
1"
1$
1%
0&
1?
1=
0<
0A
1@
1^
0Y
0\
1Z
1O
0m
0g
1e
1h
0f
0S
0V
1W
1]
0_
1q
0p
0s
1u
1v
0[
0`
1b
0d
1o
1r
0F
0G
1a
0-
0,
0M
1K
0D
0E
0.
1)
0+
0*
1J
12
#80000
1!
0"
1&
0(
0=
1<
0C
1A
1Y
0R
1\
0Z
1g
0e
1l
0h
1S
1V
0W
1`
1d
0]
1_
0q
1p
0o
1s
0u
0v
1[
0a
0`
1c
0d
1o
0r
1M
1D
1F
1G
1.
1-
1,
1*
0M
1L
0D
0J
1E
0.
11
1+
0*
02
#120000
0!
1"
0&
1(
0$
0?
1=
0<
1C
0A
0Y
1R
0\
1Z
0O
1m
0g
1e
0l
1h
1`
0b
0c
1d
0_
1q
0o
1M
0L
0K
1D
1.
01
0)
1*
#160000
0"
0(
0%
0#
0>
0=
0C
0@
0^
0R
0Z
0T
1i
1g
1l
1f
0`
0d
0S
0[
0V
1u
1r
1v
1o
1a
0F
0E
0G
0M
0D
0-
0,
0+
0*
0.
1J
12
#200000
1(
1#
1!
1&
10
1C
1A
1>
1<
1I
1Q
1\
1T
1Y
1R
0l
0h
0i
0e
0n
1_
0q
#240000
0!
0&
1"
1%
1$
1?
1=
0<
0A
1@
1^
0Y
0\
1Z
1O
0m
0g
1e
1h
0f
1S
1W
1]
0_
1q
0p
0s
0v
0a
1G
1-
0J
02
#280000
1!
1&
0"
0(
0=
1<
0C
1A
1Y
0R
1\
0Z
1g
0e
1l
0h
0S
0W
1`
0]
1_
0q
1p
0o
1s
1v
1D
0G
0-
1*
#320000
0!
0&
1"
1(
0$
0?
1=
0<
1C
0A
0Y
1R
0\
1Z
0O
1m
0g
1e
0l
1h
0`
0_
1q
1o
1a
0D
0*
1J
12
#360000
0"
0(
0%
0#
0>
0=
0C
0@
0^
0R
0Z
0T
1i
1g
1l
1f
#400000
1(
1#
1!
1&
00
1/
1C
1A
1>
1<
0I
1H
1P
0Q
1\
1T
1Y
1R
0l
0h
0i
0e
1n
0k
1`
1b
1d
1[
1S
1_
0q
0v
0r
0o
0a
0`
1c
0d
1o
1G
1E
1M
1K
1D
1-
1+
1*
1.
1)
0M
1L
0D
0J
0.
11
0*
02
#440000
0!
0&
1"
1%
1$
1?
1=
0<
0A
1@
1^
0Y
0\
1Z
1O
0m
0g
1e
1h
0f
0b
0c
0S
1V
1W
1]
0_
1q
0p
0s
0u
1v
1`
1c
1d
0o
1F
0G
0L
0K
0-
1,
01
0)
1M
1L
1D
1.
11
1*
#480000
1!
1&
0"
0(
0=
1<
0C
1A
1Y
0R
1\
0Z
1g
0e
1l
0h
1S
0W
0`
1b
0c
0d
0]
1_
0q
1p
1o
1s
0v
1`
0b
1d
0o
0M
0L
1K
0D
1G
0.
01
1)
1-
0*
1M
0K
1D
1.
0)
1*
#520000
0!
0&
1"
1(
0$
0?
1=
0<
1C
0A
0Y
1R
0\
1Z
0O
1m
0g
1e
0l
1h
0`
0d
0V
0_
1q
1u
1o
1`
1c
1d
0o
0F
0M
0D
0,
0*
0.
1M
1L
1D
1.
11
1*
#560000
0"
0(
0%
0#
0>
0=
0C
0@
0^
0R
0Z
0T
1i
1g
1l
1f
0`
1b
0c
0d
0S
0[
1r
1v
1o
1a
0E
0G
0M
0L
1K
0D
0-
0+
0*
0.
01
1)
1J
12
#600000
1(
1#
1!
1&
10
1C
1A
1>
1<
1I
1Q
1\
1T
1Y
1R
0l
0h
0i
0e
0n
1`
0b
1[
1S
1V
1_
0q
0u
0v
0r
0o
0a
1F
1G
1E
0K
1D
1-
1,
1+
1*
0)
0J
02
#640000
0!
0&
1"
1%
1$
1?
1=
0<
0A
1@
1^
0Y
0\
1Z
1O
0m
0g
1e
1h
0f
1W
1]
0_
1q
0p
0s
#680000
1!
1&
0"
0(
0=
1<
0C
1A
1Y
0R
1\
0Z
1g
0e
1l
0h
0W
0]
1_
0q
1p
1s
#720000
0!
0&
1"
1(
0$
0?
1=
0<
1C
0A
0Y
1R
0\
1Z
0O
1m
0g
1e
0l
1h
0_
1q
#760000
0"
0(
0%
0#
0>
0=
0C
0@
0^
0R
0Z
0T
1i
1g
1l
1f
0`
0S
0[
0V
1u
1r
1v
1o
1a
0F
0E
0G
0D
0-
0,
0+
0*
1J
12
