Lab08/FSM/simulation/qsim/FSM.msim.vcd
$comment
	File created using the following command:
		vcd file FSM.msim.vcd -direction
$end
$date
	Mon Apr 16 16:32:31 2018
$end
$version
	ModelSim Version 10.5b
$end
$timescale
	1ps
$end

$scope module fsm_table_vhd_vec_tst $end
$var wire 1 ! clock $end
$var wire 1 " reset $end
$var wire 1 # w $end
$var wire 1 $ z $end

$scope module i1 $end
$var wire 1 % gnd $end
$var wire 1 & vcc $end
$var wire 1 ' unknown $end
$var wire 1 ( devoe $end
$var wire 1 ) devclrn $end
$var wire 1 * devpor $end
$var wire 1 + ww_devoe $end
$var wire 1 , ww_devclrn $end
$var wire 1 - ww_devpor $end
$var wire 1 . ww_clock $end
$var wire 1 / ww_reset $end
$var wire 1 0 ww_w $end
$var wire 1 1 ww_z $end
$var wire 1 2 \z~output_o\ $end
$var wire 1 3 \clock~input_o\ $end
$var wire 1 4 \reset~input_o\ $end
$var wire 1 5 \w~input_o\ $end
$var wire 1 6 \y~9_combout\ $end
$var wire 1 7 \y.D~q\ $end
$var wire 1 8 \y~10_combout\ $end
$var wire 1 9 \y.A~q\ $end
$var wire 1 : \y~11_combout\ $end
$var wire 1 ; \y.C~q\ $end
$var wire 1 < \y~8_combout\ $end
$var wire 1 = \y.B~q\ $end
$var wire 1 > \z~0_combout\ $end
$var wire 1 ? \z~reg0_q\ $end
$var wire 1 @ \ALT_INV_w~input_o\ $end
$var wire 1 A \ALT_INV_reset~input_o\ $end
$var wire 1 B \ALT_INV_y.C~q\ $end
$var wire 1 C \ALT_INV_y.A~q\ $end
$var wire 1 D \ALT_INV_y.D~q\ $end
$var wire 1 E \ALT_INV_y.B~q\ $end
$var wire 1 F \ALT_INV_z~reg0_q\ $end
$upscope $end
$upscope $end
$enddefinitions $end
#0
$dumpvars
0!
0"
0#
0$
0%
1&
x'
1(
1)
1*
1+
1,
1-
0.
0/
00
01
02
03
04
05
06
07
18
09
1:
0;
0<
0=
1>
0?
1@
1A
1B
1C
1D
1E
1F
$end
#20000
1#
10
15
0@
0:
1<
#25000
1!
1.
13
19
1=
1?
0F
0E
0C
1:
0<
0>
12
11
1$
#30000
0#
00
05
1@
16
0:
1>
#50000
0!
0.
03
#75000
1!
1.
13
17
0=
1E
0D
08
06
0>
#100000
0!
0.
03
#125000
1!
1.
13
07
09
0?
1F
1C
1D
18
1:
1>
02
01
0$
#150000
0!
0.
03
#175000
1!
1.
13
19
1;
1?
0F
0B
0C
0:
1<
0>
12
11
1$
#200000
0!
0.
03
#225000
1!
1.
13
0;
1=
0?
1F
0E
1B
0<
16
1>
02
01
0$
#250000
0!
0.
03
#260000
1#
10
15
0@
06
1:
0>
#275000
1!
1.
13
1;
0=
1E
0B
#290000
0#
00
05
1@
0:
1<
#300000
0!
0.
03
#320000
1#
10
15
0@
1:
0<
#325000
1!
1.
13
#340000
0#
00
05
1@
0:
1<
#350000
0!
0.
03
#370000
1#
10
15
0@
1:
0<
#375000
1!
1.
13
#390000
0#
00
05
1@
0:
1<
#400000
0!
0.
03
#420000
1"
1/
14
0A
08
0<
#425000
1!
1.
13
09
0;
1B
1C
#440000
0"
0/
04
1A
18
1:
1>
#450000
0!
0.
03
#470000
1#
10
15
0@
0:
1<
#475000
1!
1.
13
19
1=
1?
0F
0E
0C
1:
0<
0>
12
11
1$
#490000
0#
00
05
1@
16
0:
1>
#500000
0!
0.
03
#525000
1!
1.
13
17
0=
1E
0D
08
06
0>
#550000
0!
0.
03
#560000
1#
10
15
0@
18
1:
1>
#575000
1!
1.
13
07
1;
0B
1D
0>
#590000
0#
00
05
1@
0:
1<
#600000
0!
0.
03
#610000
1#
10
15
0@
1:
0<
#625000
1!
1.
13
0?
1F
02
01
0$
#650000
0!
0.
03
#675000
1!
1.
13
#700000
0!
0.
03
#725000
1!
1.
13
#750000
0!
0.
03
#775000
1!
1.
13
#790000
0#
00
05
1@
0:
1<
