Lab08/FSM/simulation/qsim/FSM.msim.vcd
$comment
	File created using the following command:
		vcd file FSM.msim.vcd -direction
$end
$date
	Mon Apr 23 16:08:22 2018
$end
$version
	ModelSim Version 10.5b
$end
$timescale
	1ps
$end

$scope module fsm_table_vhd_vec_tst $end
$var wire 1 ! clock $end
$var wire 1 " reset $end
$var wire 1 # w $end
$var wire 1 $ z $end

$scope module i1 $end
$var wire 1 % gnd $end
$var wire 1 & vcc $end
$var wire 1 ' unknown $end
$var wire 1 ( devoe $end
$var wire 1 ) devclrn $end
$var wire 1 * devpor $end
$var wire 1 + ww_devoe $end
$var wire 1 , ww_devclrn $end
$var wire 1 - ww_devpor $end
$var wire 1 . ww_clock $end
$var wire 1 / ww_reset $end
$var wire 1 0 ww_w $end
$var wire 1 1 ww_z $end
$var wire 1 2 \z~output_o\ $end
$var wire 1 3 \w~input_o\ $end
$var wire 1 4 \clock~input_o\ $end
$var wire 1 5 \reset~input_o\ $end
$var wire 1 6 \y~9_combout\ $end
$var wire 1 7 \y.A~q\ $end
$var wire 1 8 \y~11_combout\ $end
$var wire 1 9 \y.C~q\ $end
$var wire 1 : \y~10_combout\ $end
$var wire 1 ; \y.B~q\ $end
$var wire 1 < \y~8_combout\ $end
$var wire 1 = \y.D~q\ $end
$var wire 1 > \Selector1~0_combout\ $end
$var wire 1 ? \ALT_INV_reset~input_o\ $end
$var wire 1 @ \ALT_INV_w~input_o\ $end
$var wire 1 A \ALT_INV_y.C~q\ $end
$var wire 1 B \ALT_INV_y.B~q\ $end
$var wire 1 C \ALT_INV_y.A~q\ $end
$var wire 1 D \ALT_INV_y.D~q\ $end
$upscope $end
$upscope $end
$enddefinitions $end
#0
$dumpvars
0!
0"
0#
1$
0%
1&
x'
1(
1)
1*
1+
1,
1-
0.
0/
00
11
12
03
04
05
16
07
18
09
0:
0;
0<
0=
1>
1?
1@
1A
1B
1C
1D
$end
#20000
1#
10
13
0@
08
1:
#25000
1!
1.
14
17
1;
0B
0C
18
0:
0>
02
01
0$
#30000
0#
00
03
1@
08
1<
1>
12
11
1$
#50000
0!
0.
04
#75000
1!
1.
14
0;
1=
0D
1B
0<
06
0>
02
01
0$
#100000
0!
0.
04
#125000
1!
1.
14
07
0=
1D
1C
18
16
1>
12
11
1$
#150000
0!
0.
04
#175000
1!
1.
14
17
19
0A
0C
08
0>
1:
02
01
0$
#200000
0!
0.
04
#225000
1!
1.
14
09
1;
0B
1A
0:
1<
1>
12
11
1$
#250000
0!
0.
04
#260000
1#
10
13
0@
18
0<
0>
02
01
0$
#275000
1!
1.
14
19
0;
1B
0A
#290000
0#
00
03
1@
08
1:
#300000
0!
0.
04
#320000
1#
10
13
0@
18
0:
#325000
1!
1.
14
#340000
0#
00
03
1@
08
1:
#350000
0!
0.
04
#370000
1#
10
13
0@
18
0:
#375000
1!
1.
14
#390000
0#
00
03
1@
08
1:
#400000
0!
0.
04
#420000
1"
1/
15
0?
06
0:
#425000
1!
1.
14
07
09
1A
1C
1>
12
11
1$
#440000
0"
0/
05
1?
16
18
#450000
0!
0.
04
#470000
1#
10
13
0@
08
1:
#475000
1!
1.
14
17
1;
0B
0C
18
0:
0>
02
01
0$
#490000
0#
00
03
1@
08
1<
1>
12
11
1$
#500000
0!
0.
04
#525000
1!
1.
14
0;
1=
0D
1B
0<
06
0>
02
01
0$
#550000
0!
0.
04
#560000
1#
10
13
0@
16
18
1>
12
11
1$
#575000
1!
1.
14
19
0=
1D
0A
0>
02
01
0$
#590000
0#
00
03
1@
08
1:
#600000
0!
0.
04
#610000
1#
10
13
0@
18
0:
#625000
1!
1.
14
#650000
0!
0.
04
#675000
1!
1.
14
#700000
0!
0.
04
#725000
1!
1.
14
#750000
0!
0.
04
#775000
1!
1.
14
#790000
0#
00
03
1@
08
1:
